out/dump.vcd
$date
	Mon Oct  6 16:36:16 2025
$end
$version
	Icarus Verilog
$end
$timescale
	1s
$end
$scope module test $end
$var wire 8 ! regA_out [7:0] $end
$var wire 8 " regB_out [7:0] $end
$var reg 1 # add_test_failed $end
$var reg 1 $ and_test_failed $end
$var reg 1 % clk $end
$var reg 1 & inc_test_failed $end
$var reg 1 ' mov_test_failed $end
$var reg 1 ( not_test_failed $end
$var reg 1 ) or_test_failed $end
$var reg 1 * reg_mov_test_failed $end
$var reg 1 + shl_test_failed $end
$var reg 1 , shr_test_failed $end
$var reg 1 - sub_test_failed $end
$var reg 1 . xor_test_failed $end
$scope module Comp $end
$var wire 1 % clk $end
$var wire 4 / status_out [3:0] $end
$var wire 8 0 wb_data [7:0] $end
$var wire 1 1 wbSel $end
$var wire 2 2 selData [1:0] $end
$var wire 2 3 selB [1:0] $end
$var wire 2 4 selA [1:0] $end
$var wire 8 5 regB_out_bus [7:0] $end
$var wire 8 6 regA_out_bus [7:0] $end
$var wire 8 7 pc_out_bus [7:0] $end
$var wire 7 8 opcode [6:0] $end
$var wire 1 9 mem_we $end
$var wire 15 : im_out_bus [14:0] $end
$var wire 8 ; dmem_out [7:0] $end
$var wire 8 < dmem_addr [7:0] $end
$var wire 8 = alu_out_bus [7:0] $end
$var wire 4 > alu_op [3:0] $end
$var wire 8 ? alu_b_bus [7:0] $end
$var wire 8 @ alu_a_bus [7:0] $end
$var wire 1 A Z $end
$var wire 1 B V $end
$var wire 1 C N $end
$var wire 1 D LP $end
$var wire 1 E LB $end
$var wire 1 F LA $end
$var wire 8 G K [7:0] $end
$var wire 1 H C $end
$scope module ALU $end
$var wire 8 I out [7:0] $end
$var wire 9 J sum [8:0] $end
$var wire 4 K s [3:0] $end
$var wire 9 L diff [8:0] $end
$var wire 8 M b [7:0] $end
$var wire 8 N a [7:0] $end
$var wire 1 A Z $end
$var wire 1 B V $end
$var wire 1 C N $end
$var wire 1 H C $end
$var reg 1 H C_r $end
$var reg 1 B V_r $end
$var reg 8 O out_r [7:0] $end
$upscope $end
$scope module CU $end
$var wire 7 P opcode [6:0] $end
$var wire 4 Q status [3:0] $end
$var reg 1 F LA $end
$var reg 1 E LB $end
$var reg 1 D LP $end
$var reg 4 R alu_op [3:0] $end
$var reg 1 9 mem_we $end
$var reg 2 S selA [1:0] $end
$var reg 2 T selB [1:0] $end
$var reg 2 U selData [1:0] $end
$var reg 1 1 wbSel $end
$upscope $end
$scope module DM $end
$var wire 1 9 W $end
$var wire 1 % clk $end
$var wire 8 V data_out [7:0] $end
$var wire 8 W data_in [7:0] $end
$var wire 8 X address [7:0] $end
$upscope $end
$scope module IM $end
$var wire 15 Y out [14:0] $end
$var wire 8 Z address [7:0] $end
$var integer 32 [ i [31:0] $end
$upscope $end
$scope module MUXD $end
$var wire 8 \ K [7:0] $end
$var wire 2 ] sel [1:0] $end
$var wire 8 ^ PC [7:0] $end
$var wire 8 _ B [7:0] $end
$var wire 8 ` A [7:0] $end
$var reg 8 a out [7:0] $end
$upscope $end
$scope module PC $end
$var wire 1 % clk $end
$var reg 8 b pc [7:0] $end
$upscope $end
$scope module muxA $end
$var wire 8 c K_unused [7:0] $end
$var wire 2 d sel [1:0] $end
$var wire 8 e B [7:0] $end
$var wire 8 f A [7:0] $end
$var reg 8 g out [7:0] $end
$upscope $end
$scope module muxB $end
$var wire 8 h K [7:0] $end
$var wire 2 i sel [1:0] $end
$var wire 8 j B [7:0] $end
$var wire 8 k A [7:0] $end
$var reg 8 l out [7:0] $end
$upscope $end
$scope module muxWB $end
$var wire 8 m alu_out [7:0] $end
$var wire 8 n mem_out [7:0] $end
$var wire 1 1 sel $end
$var wire 8 o out [7:0] $end
$upscope $end
$scope module regA $end
$var wire 1 % clk $end
$var wire 8 p data [7:0] $end
$var wire 1 F load $end
$var reg 8 q out [7:0] $end
$upscope $end
$scope module regB $end
$var wire 1 % clk $end
$var wire 8 r data [7:0] $end
$var wire 1 E load $end
$var reg 8 s out [7:0] $end
$upscope $end
$scope module status_reg $end
$var wire 1 H C_in $end
$var wire 1 C N_in $end
$var wire 1 B V_in $end
$var wire 1 A Z_in $end
$var wire 1 % clk $end
$var wire 4 t status_out [3:0] $end
$var reg 1 u C $end
$var reg 1 v N $end
$var reg 1 w V $end
$var reg 1 x Z $end
$upscope $end
$upscope $end
$upscope $end
$enddefinitions $end
$comment Show the parameter values. $end
$dumpall
$end
#0
$dumpvars
xx
xw
xv
xu
bx t
b0 s
b101010 r
b0 q
b101010 p
b101010 o
b0 n
b101010 m
b101010 l
b0 k
b0 j
b10 i
b101010 h
b0 g
b0 f
b0 e
b10 d
b0 c
b0 b
b0 a
b0 `
b0 _
b0 ^
b0 ]
b101010 \
b100000000 [
b0 Z
b1000101010 Y
b0 X
b0 W
b0 V
b0 U
b10 T
b10 S
b0 R
bx Q
b10 P
b101010 O
b0 N
b101010 M
b11010110 L
b0 K
b101010 J
b101010 I
0H
b101010 G
1F
0E
0D
0C
0B
0A
b0 @
b101010 ?
b0 >
b101010 =
b0 <
b0 ;
b1000101010 :
09
b10 8
b0 7
b0 6
b0 5
b10 4
b10 3
b0 2
01
b101010 0
bx /
0.
0-
0,
0+
0*
0)
0(
0'
0&
0%
0$
0#
b0 "
b0 !
$end
#1
b1111011 0
b1111011 o
b1111011 p
b1111011 r
b10000101 L
b1111011 =
b1111011 I
b1111011 m
b1111011 O
b1111011 J
b1111011 ?
b1111011 M
b1111011 l
1E
b10 3
b10 T
b10 i
b10 4
b10 S
b10 d
0F
b1111011 G
b1111011 \
b1111011 h
b11 8
b11 P
b1101111011 :
b1101111011 Y
b1 7
b1 Z
b1 ^
b1 b
b101010 !
b101010 6
b101010 `
b101010 f
b101010 k
b101010 q
0u
0w
0v
b0 /
b0 Q
b0 t
0x
1%
#2
0%
#3
b1010101 0
b1010101 o
b1010101 p
b1010101 r
b10101011 L
b1010101 =
b1010101 I
b1010101 m
b1010101 O
bx ;
bx V
bx n
b1111011 <
b1111011 X
b1111011 a
b1010101 J
b1010101 ?
b1010101 M
b1010101 l
b1010101 G
b1010101 \
b1010101 h
b1111011 "
b1111011 5
b1111011 W
b1111011 _
b1111011 e
b1111011 j
b1111011 s
b1101010101 :
b1101010101 Y
b10 7
b10 Z
b10 ^
b10 b
1%
#4
0%
#5
b0x00 /
b0x00 Q
b0x00 t
1C
b10101010 0
b10101010 o
b10101010 p
b10101010 r
b1010110 L
b10101010 =
b10101010 I
b10101010 m
b10101010 O
b10101010 J
b10101010 ?
b10101010 M
b10101010 l
1F
b10 3
b10 T
b10 i
b10 4
b10 S
b10 d
0E
b10101010 G
b10101010 \
b10101010 h
b10 8
b10 P
b1010101 <
b1010101 X
b1010101 a
b1010101010 :
b1010101010 Y
b11 7
b11 Z
b11 ^
b11 b
b1010101 "
b1010101 5
b1010101 W
b1010101 _
b1010101 e
b1010101 j
b1010101 s
1%
#6
0%
#7
0C
b1010101 0
b1010101 o
b1010101 p
b1010101 r
b10101011 L
0A
b1010101 =
b1010101 I
b1010101 m
b1010101 O
b0 3
b0 T
b0 i
b10 4
b10 S
b10 d
1F
b1010101 J
b1010101 ?
b1010101 M
b1010101 l
b0 G
b0 \
b0 h
b0 8
b0 P
b0x00 /
b0x00 Q
b0x00 t
1v
b10101010 !
b10101010 6
b10101010 `
b10101010 f
b10101010 k
b10101010 q
b0 :
b0 Y
b100 7
b100 Z
b100 ^
b100 b
1%
#8
0%
#9
b1100011 0
b1100011 o
b1100011 p
b1100011 r
b10011101 L
b1100011 =
b1100011 I
b1100011 m
b1100011 O
b1100011 J
b1100011 ?
b1100011 M
b1100011 l
b10 3
b10 T
b10 i
b10 4
b10 S
b10 d
1F
b1100011 G
b1100011 \
b1100011 h
b10 8
b10 P
b1001100011 :
b1001100011 Y
b101 7
b101 Z
b101 ^
b101 b
b1010101 !
b1010101 6
b1010101 `
b1010101 f
b1010101 k
b1010101 q
b0 /
b0 Q
b0 t
0v
1%
#10
0%
#11
b1100011 0
b1100011 o
b1100011 p
b1100011 r
b10011101 L
b0 /
b0 Q
b0 t
0A
b1100011 =
b1100011 I
b1100011 m
b1100011 O
1E
b1 3
b1 T
b1 i
b10 4
b10 S
b10 d
0F
b1100011 J
b1100011 ?
b1100011 M
b1100011 l
b0 G
b0 \
b0 h
b1 8
b1 P
b1100011 !
b1100011 6
b1100011 `
b1100011 f
b1100011 k
b1100011 q
b100000000 :
b100000000 Y
b110 7
b110 Z
b110 ^
b110 b
1%
#12
0%
#13
b10 0
b10 o
b10 p
b10 r
b11111110 L
b10 =
b10 I
b10 m
b10 O
b10 J
b10 ?
b10 M
b10 l
1F
b10 3
b10 T
b10 i
b10 4
b10 S
b10 d
0E
b10 G
b10 \
b10 h
b10 8
b10 P
b1100011 <
b1100011 X
b1100011 a
b1000000010 :
b1000000010 Y
b111 7
b111 Z
b111 ^
b111 b
b1100011 "
b1100011 5
b1100011 W
b1100011 _
b1100011 e
b1100011 j
b1100011 s
1%
#14
0%
#15
b11 0
b11 o
b11 p
b11 r
b11111101 L
b11 =
b11 I
b11 m
b11 O
1E
b10 3
b10 T
b10 i
b10 4
b10 S
b10 d
0F
b11 J
b11 ?
b11 M
b11 l
b11 G
b11 \
b11 h
b11 8
b11 P
b10 !
b10 6
b10 `
b10 f
b10 k
b10 q
b1100000011 :
b1100000011 Y
b1000 7
b1000 Z
b1000 ^
b1000 b
1%
#16
0%
#17
b101 0
b101 o
b101 p
b101 r
b101 =
b101 I
b101 m
b101 O
b11111111 L
b101 J
b10 @
b10 N
b10 g
1F
b0 3
b0 T
b0 i
b0 4
b0 S
b0 d
0E
b0 G
b0 \
b0 h
b100 8
b100 P
b0 ;
b0 V
b0 n
b11 <
b11 X
b11 a
b10000000000 :
b10000000000 Y
b1001 7
b1001 Z
b1001 ^
b1001 b
b11 "
b11 5
b11 W
b11 _
b11 e
b11 j
b11 s
1%
#18
0%
#19
b1111 0
b1111 o
b1111 p
b1111 r
b1010 ?
b1010 M
b1010 l
b1111 =
b1111 I
b1111 m
b1111 O
b10 3
b10 T
b10 i
1F
b11111011 L
b1111 J
b101 @
b101 N
b101 g
b1010 G
b1010 \
b1010 h
b110 8
b110 P
b101 !
b101 6
b101 `
b101 f
b101 k
b101 q
b11000001010 :
b11000001010 Y
b1010 7
b1010 Z
b1010 ^
b1010 b
1%
#20
0%
#21
b10111 0
b10111 o
b10111 p
b10111 r
b10100 ?
b10100 M
b10100 l
b1 4
b1 S
b1 d
1E
b10 3
b10 T
b10 i
0F
b10111 =
b10111 I
b10111 m
b10111 O
b10100 G
b10100 \
b10100 h
b111 8
b111 P
b11101111 L
b10111 J
b11 @
b11 N
b11 g
b11100010100 :
b11100010100 Y
b1011 7
b1011 Z
b1011 ^
b1011 b
b1111 !
b1111 6
b1111 `
b1111 f
b1111 k
b1111 q
1%
#22
0%
#23
b10100 0
b10100 o
b10100 p
b10100 r
b10100 =
b10100 I
b10100 m
b10100 O
1F
b10 3
b10 T
b10 i
b10 4
b10 S
b10 d
0E
bx ;
bx V
bx n
b10111 <
b10111 X
b10111 a
b11101100 L
b10100 J
b0 @
b0 N
b0 g
b10 8
b10 P
b10111 "
b10111 5
b10111 W
b10111 _
b10111 e
b10111 j
b10111 s
b1000010100 :
b1000010100 Y
b1100 7
b1100 Z
b1100 ^
b1100 b
1%
#24
0%
#25
b101 0
b101 o
b101 p
b101 r
b11111011 L
b101 =
b101 I
b101 m
b101 O
b101 J
b101 ?
b101 M
b101 l
1E
b10 3
b10 T
b10 i
b10 4
b10 S
b10 d
0F
b101 G
b101 \
b101 h
b11 8
b11 P
b1100000101 :
b1100000101 Y
b1101 7
b1101 Z
b1101 ^
b1101 b
b10100 !
b10100 6
b10100 `
b10100 f
b10100 k
b10100 q
1%
#26
0%
#27
0C
b1111 0
b1111 o
b1111 p
b1111 r
b10100 @
b10100 N
b10100 g
b100001111 L
b0 /
b0 Q
b0 t
0H
b1111 =
b1111 I
b1111 m
b1111 O
b1 >
b1 K
b1 R
1F
b0 3
b0 T
b0 i
b0 4
b0 S
b0 d
0E
b0 ;
b0 V
b0 n
b101 <
b101 X
b101 a
b11001 J
b101 ?
b101 M
b101 l
b0 G
b0 \
b0 h
b1000 8
b1000 P
b101 "
b101 5
b101 W
b101 _
b101 e
b101 j
b101 s
b100000000000 :
b100000000000 Y
b1110 7
b1110 Z
b1110 ^
b1110 b
1%
#28
0%
#29
b1010 0
b1010 o
b1010 p
b1010 r
1E
b1 >
b1 K
b1 R
0F
b1010 =
b1010 I
b1010 m
b1010 O
b1001 8
b1001 P
b100001010 L
b10100 J
b1111 @
b1111 N
b1111 g
b100100000000 :
b100100000000 Y
b1111 7
b1111 Z
b1111 ^
b1111 b
b1111 !
b1111 6
b1111 `
b1111 f
b1111 k
b1111 q
1%
#30
0%
#31
b1000 0
b1000 o
b1000 p
b1000 r
b1000 =
b1000 I
b1000 m
b1000 O
b100001000 L
b10 3
b10 T
b10 i
1F
b1 >
b1 K
b1 R
0E
bx ;
bx V
bx n
b1010 <
b1010 X
b1010 a
b10110 J
b111 ?
b111 M
b111 l
b111 G
b111 \
b111 h
b1010 8
b1010 P
b1010 "
b1010 5
b1010 W
b1010 _
b1010 e
b1010 j
b1010 s
b101000000111 :
b101000000111 Y
b10000 7
b10000 Z
b10000 ^
b10000 b
1%
#32
0%
#33
bx000 /
bx000 Q
bx000 t
1A
b0 0
b0 o
b0 p
b0 r
b1010 ?
b1010 M
b1010 l
b1 4
b1 S
b1 d
1E
b1 >
b1 K
b1 R
b10 3
b10 T
b10 i
0F
b0 =
b0 I
b0 m
b0 O
b1010 G
b1010 \
b1010 h
b1011 8
b1011 P
b100000000 L
b10100 J
b1010 @
b1010 N
b1010 g
b101100001010 :
b101100001010 Y
b10001 7
b10001 Z
b10001 ^
b10001 b
b1000 !
b1000 6
b1000 `
b1000 f
b1000 k
b1000 q
1%
#34
0%
#35
1C
b11001010 0
b11001010 o
b11001010 p
b11001010 r
0A
b11001010 =
b11001010 I
b11001010 m
b11001010 O
1F
b0 >
b0 K
b0 R
b10 3
b10 T
b10 i
b10 4
b10 S
b10 d
0E
b0 ;
b0 V
b0 n
b0 <
b0 X
b0 a
b110110 L
b0 @
b0 N
b0 g
b11001010 J
b11001010 ?
b11001010 M
b11001010 l
b11001010 G
b11001010 \
b11001010 h
b10 8
b10 P
bx00 /
bx00 Q
bx00 t
1x
b0 "
b0 5
b0 W
b0 _
b0 e
b0 j
b0 s
b1011001010 :
b1011001010 Y
b10010 7
b10010 Z
b10010 ^
b10010 b
1%
#36
0%
#37
b10101110 0
b10101110 o
b10101110 p
b10101110 r
b1010010 L
b10101110 =
b10101110 I
b10101110 m
b10101110 O
b10101110 J
b10101110 ?
b10101110 M
b10101110 l
1E
b10 3
b10 T
b10 i
b10 4
b10 S
b10 d
0F
b10101110 G
b10101110 \
b10101110 h
b11 8
b11 P
b1110101110 :
b1110101110 Y
b10011 7
b10011 Z
b10011 ^
b10011 b
b11001010 !
b11001010 6
b11001010 `
b11001010 f
b11001010 k
b11001010 q
1v
b100 /
b100 Q
b100 t
0x
1%
#38
0%
#39
1C
b10001010 0
b10001010 o
b10001010 p
b10001010 r
b11001010 @
b11001010 N
b11001010 g
b100011100 L
b100 /
b100 Q
b100 t
0A
b10001010 =
b10001010 I
b10001010 m
b10001010 O
b10 >
b10 K
b10 R
1F
b0 3
b0 T
b0 i
b0 4
b0 S
b0 d
0E
bx ;
bx V
bx n
b10101110 <
b10101110 X
b10101110 a
b101111000 J
b10101110 ?
b10101110 M
b10101110 l
b0 G
b0 \
b0 h
b1100 8
b1100 P
b10101110 "
b10101110 5
b10101110 W
b10101110 _
b10101110 e
b10101110 j
b10101110 s
b110000000000 :
b110000000000 Y
b10100 7
b10100 Z
b10100 ^
b10100 b
1%
#40
0%
#41
b10001010 ?
b10001010 M
b10001010 l
b1 3
b1 T
b1 i
b1 4
b1 S
b1 d
1E
b10 >
b10 K
b10 R
0F
b1101 8
b1101 P
b100100100 L
b100111000 J
b10101110 @
b10101110 N
b10101110 g
b110100000000 :
b110100000000 Y
b10101 7
b10101 Z
b10101 ^
b10101 b
b10001010 !
b10001010 6
b10001010 `
b10001010 f
b10001010 k
b10001010 q
1%
#42
0%
#43
1C
b11110000 0
b11110000 o
b11110000 p
b11110000 r
b11110000 ?
b11110000 M
b11110000 l
0B
b100 /
b100 Q
b100 t
0H
b11110000 =
b11110000 I
b11110000 m
b11110000 O
1F
b0 >
b0 K
b0 R
b10 3
b10 T
b10 i
b10 4
b10 S
b10 d
0E
b10001010 <
b10001010 X
b10001010 a
b10000 L
b11110000 J
b0 @
b0 N
b0 g
b11110000 G
b11110000 \
b11110000 h
b10 8
b10 P
b10001010 "
b10001010 5
b10001010 W
b10001010 _
b10001010 e
b10001010 j
b10001010 s
b1011110000 :
b1011110000 Y
b10110 7
b10110 Z
b10110 ^
b10110 b
1%
#44
0%
#45
b0x00 /
b0x00 Q
b0x00 t
0C
b1010000 0
b1010000 o
b1010000 p
b1010000 r
b1010000 =
b1010000 I
b1010000 m
b1010000 O
b110011011 L
b11110000 @
b11110000 N
b11110000 g
b101000101 J
b1010101 ?
b1010101 M
b1010101 l
b10 >
b10 K
b10 R
b10 3
b10 T
b10 i
b0 4
b0 S
b0 d
1F
b1010101 G
b1010101 \
b1010101 h
b1110 8
b1110 P
b111001010101 :
b111001010101 Y
b10111 7
b10111 Z
b10111 ^
b10111 b
b11110000 !
b11110000 6
b11110000 `
b11110000 f
b11110000 k
b11110000 q
1%
#46
0%
#47
1C
b11001100 0
b11001100 o
b11001100 p
b11001100 r
0H
b11001100 =
b11001100 I
b11001100 m
b11001100 O
b10 4
b10 S
b10 d
1E
b0 >
b0 K
b0 R
b10 3
b10 T
b10 i
0F
b110100 L
b0 @
b0 N
b0 g
b11001100 J
b11001100 ?
b11001100 M
b11001100 l
b11001100 G
b11001100 \
b11001100 h
b11 8
b11 P
b0x00 /
b0x00 Q
b0x00 t
0v
b1010000 !
b1010000 6
b1010000 `
b1010000 f
b1010000 k
b1010000 q
b1111001100 :
b1111001100 Y
b11000 7
b11000 Z
b11000 ^
b11000 b
1%
#48
0%
#49
b10001000 0
b10001000 o
b10001000 p
b10001000 r
b10001000 =
b10001000 I
b10001000 m
b10001000 O
b100100010 L
b11001100 @
b11001100 N
b11001100 g
b101110110 J
b10101010 ?
b10101010 M
b10101010 l
b10 >
b10 K
b10 R
b10 3
b10 T
b10 i
b1 4
b1 S
b1 d
1E
b10101010 G
b10101010 \
b10101010 h
b1111 8
b1111 P
b11001100 <
b11001100 X
b11001100 a
b111110101010 :
b111110101010 Y
b11001 7
b11001 Z
b11001 ^
b11001 b
b11001100 "
b11001100 5
b11001100 W
b11001100 _
b11001100 e
b11001100 j
b11001100 s
b100 /
b100 Q
b100 t
1v
1%
#50
0%
#51
1C
b11001010 0
b11001010 o
b11001010 p
b11001010 r
0B
b100 /
b100 Q
b100 t
0H
b11001010 =
b11001010 I
b11001010 m
b11001010 O
1F
b0 >
b0 K
b0 R
b10 3
b10 T
b10 i
b10 4
b10 S
b10 d
0E
b10001000 <
b10001000 X
b10001000 a
b110110 L
b0 @
b0 N
b0 g
b11001010 J
b11001010 ?
b11001010 M
b11001010 l
b11001010 G
b11001010 \
b11001010 h
b10 8
b10 P
b10001000 "
b10001000 5
b10001000 W
b10001000 _
b10001000 e
b10001000 j
b10001000 s
b1011001010 :
b1011001010 Y
b11010 7
b11010 Z
b11010 ^
b11010 b
1%
#52
0%
#53
b10101110 0
b10101110 o
b10101110 p
b10101110 r
b1010010 L
b10101110 =
b10101110 I
b10101110 m
b10101110 O
b10101110 J
b10101110 ?
b10101110 M
b10101110 l
1E
b10 3
b10 T
b10 i
b10 4
b10 S
b10 d
0F
b10101110 G
b10101110 \
b10101110 h
b11 8
b11 P
b1110101110 :
b1110101110 Y
b11011 7
b11011 Z
b11011 ^
b11011 b
b11001010 !
b11001010 6
b11001010 `
b11001010 f
b11001010 k
b11001010 q
1%
#54
0%
#55
1C
b11101110 0
b11101110 o
b11101110 p
b11101110 r
b11001010 @
b11001010 N
b11001010 g
b100011100 L
b100 /
b100 Q
b100 t
0A
b11101110 =
b11101110 I
b11101110 m
b11101110 O
b11 >
b11 K
b11 R
1F
b0 3
b0 T
b0 i
b0 4
b0 S
b0 d
0E
b10101110 <
b10101110 X
b10101110 a
b101111000 J
b10101110 ?
b10101110 M
b10101110 l
b0 G
b0 \
b0 h
b10000 8
b10000 P
b10101110 "
b10101110 5
b10101110 W
b10101110 _
b10101110 e
b10101110 j
b10101110 s
b1000000000000 :
b1000000000000 Y
b11100 7
b11100 Z
b11100 ^
b11100 b
1%
#56
0%
#57
b11101110 ?
b11101110 M
b11101110 l
b1 3
b1 T
b1 i
b1 4
b1 S
b1 d
1E
b11 >
b11 K
b11 R
0F
b10001 8
b10001 P
b11000000 L
b110011100 J
b10101110 @
b10101110 N
b10101110 g
b1000100000000 :
b1000100000000 Y
b11101 7
b11101 Z
b11101 ^
b11101 b
b11101110 !
b11101110 6
b11101110 `
b11101110 f
b11101110 k
b11101110 q
1%
#58
0%
#59
0C
b110011 0
b110011 o
b110011 p
b110011 r
b110011 ?
b110011 M
b110011 l
b0x00 /
b0x00 Q
b0x00 t
0H
b110011 =
b110011 I
b110011 m
b110011 O
1F
b0 >
b0 K
b0 R
b10 3
b10 T
b10 i
b10 4
b10 S
b10 d
0E
b11101110 <
b11101110 X
b11101110 a
b11001101 L
b110011 J
b0 @
b0 N
b0 g
b110011 G
b110011 \
b110011 h
b10 8
b10 P
b11101110 "
b11101110 5
b11101110 W
b11101110 _
b11101110 e
b11101110 j
b11101110 s
b1000110011 :
b1000110011 Y
b11110 7
b11110 Z
b11110 ^
b11110 b
1%
#60
0%
#61
1C
b11110011 0
b11110011 o
b11110011 p
b11110011 r
b11110011 =
b11110011 I
b11110011 m
b11110011 O
b1000011 L
b110011 @
b110011 N
b110011 g
b100100011 J
b11110000 ?
b11110000 M
b11110000 l
b11 >
b11 K
b11 R
b10 3
b10 T
b10 i
b0 4
b0 S
b0 d
1F
b11110000 G
b11110000 \
b11110000 h
b10010 8
b10010 P
b1001011110000 :
b1001011110000 Y
b11111 7
b11111 Z
b11111 ^
b11111 b
b110011 !
b110011 6
b110011 `
b110011 f
b110011 k
b110011 q
b0x00 /
b0x00 Q
b0x00 t
0v
1%
#62
0%
#63
b10100101 0
b10100101 o
b10100101 p
b10100101 r
0H
b10100101 =
b10100101 I
b10100101 m
b10100101 O
b10 4
b10 S
b10 d
1E
b0 >
b0 K
b0 R
b10 3
b10 T
b10 i
0F
b1011011 L
b0 @
b0 N
b0 g
b10100101 J
b10100101 ?
b10100101 M
b10100101 l
b10100101 G
b10100101 \
b10100101 h
b11 8
b11 P
b100 /
b100 Q
b100 t
1v
b11110011 !
b11110011 6
b11110011 `
b11110011 f
b11110011 k
b11110011 q
b1110100101 :
b1110100101 Y
b100000 7
b100000 Z
b100000 ^
b100000 b
1%
#64
0%
#65
b11111111 0
b11111111 o
b11111111 p
b11111111 r
b11111111 =
b11111111 I
b11111111 m
b11111111 O
b101001011 L
b10100101 @
b10100101 N
b10100101 g
b11111111 J
b1011010 ?
b1011010 M
b1011010 l
b11 >
b11 K
b11 R
b10 3
b10 T
b10 i
b1 4
b1 S
b1 d
1E
b1011010 G
b1011010 \
b1011010 h
b10011 8
b10011 P
b10100101 <
b10100101 X
b10100101 a
b1001101011010 :
b1001101011010 Y
b100001 7
b100001 Z
b100001 ^
b100001 b
b10100101 "
b10100101 5
b10100101 W
b10100101 _
b10100101 e
b10100101 j
b10100101 s
1%
#66
0%
#67
b10101010 0
b10101010 o
b10101010 p
b10101010 r
b100 /
b100 Q
b100 t
0H
b10101010 =
b10101010 I
b10101010 m
b10101010 O
1F
b0 >
b0 K
b0 R
b10 3
b10 T
b10 i
b10 4
b10 S
b10 d
0E
b11111111 <
b11111111 X
b11111111 a
b1010110 L
b0 @
b0 N
b0 g
b10101010 J
b10101010 ?
b10101010 M
b10101010 l
b10101010 G
b10101010 \
b10101010 h
b10 8
b10 P
b11111111 "
b11111111 5
b11111111 W
b11111111 _
b11111111 e
b11111111 j
b11111111 s
b1010101010 :
b1010101010 Y
b100010 7
b100010 Z
b100010 ^
b100010 b
1%
#68
0%
#69
b0x00 /
b0x00 Q
b0x00 t
0C
b1010101 0
b1010101 o
b1010101 p
b1010101 r
b1010101 =
b1010101 I
b1010101 m
b1010101 O
b10101011 L
b10101010 @
b10101010 N
b10101010 g
b110101001 J
b11111111 ?
b11111111 M
b11111111 l
b101 >
b101 K
b101 R
b0 3
b0 T
b0 i
b0 4
b0 S
b0 d
1F
b0 G
b0 \
b0 h
b10100 8
b10100 P
b1010000000000 :
b1010000000000 Y
b100011 7
b100011 Z
b100011 ^
b100011 b
b10101010 !
b10101010 6
b10101010 `
b10101010 f
b10101010 k
b10101010 q
1%
#70
0%
#71
1C
b11001100 0
b11001100 o
b11001100 p
b11001100 r
b11001100 ?
b11001100 M
b11001100 l
0H
b11001100 =
b11001100 I
b11001100 m
b11001100 O
b10 3
b10 T
b10 i
b10 4
b10 S
b10 d
1E
b0 >
b0 K
b0 R
0F
b110100 L
b11001100 J
b0 @
b0 N
b0 g
b11001100 G
b11001100 \
b11001100 h
b11 8
b11 P
b0x00 /
b0x00 Q
b0x00 t
0v
b1010101 !
b1010101 6
b1010101 `
b1010101 f
b1010101 k
b1010101 q
b1111001100 :
b1111001100 Y
b100100 7
b100100 Z
b100100 ^
b100100 b
1%
#72
0%
#73
0C
b110011 0
b110011 o
b110011 p
b110011 r
b110011 =
b110011 I
b110011 m
b110011 O
b100000000 L
b110011000 J
b11001100 @
b11001100 N
b11001100 g
b110 >
b110 K
b110 R
b0 3
b0 T
b0 i
b1 4
b1 S
b1 d
1E
b0 G
b0 \
b0 h
b10111 8
b10111 P
b11001100 <
b11001100 X
b11001100 a
b1011100000000 :
b1011100000000 Y
b100101 7
b100101 Z
b100101 ^
b100101 b
b11001100 "
b11001100 5
b11001100 W
b11001100 _
b11001100 e
b11001100 j
b11001100 s
b0x00 /
b0x00 Q
b0x00 t
1v
1%
#74
0%
#75
1C
b11111111 0
b11111111 o
b11111111 p
b11111111 r
b11111111 =
b11111111 I
b11111111 m
b11111111 O
b10 3
b10 T
b10 i
1F
b0 >
b0 K
b0 R
b10 4
b10 S
b10 d
0E
b110011 <
b110011 X
b110011 a
b1 L
b0 @
b0 N
b0 g
b11111111 J
b11111111 ?
b11111111 M
b11111111 l
b11111111 G
b11111111 \
b11111111 h
b10 8
b10 P
b0x00 /
b0x00 Q
b0x00 t
0v
b110011 "
b110011 5
b110011 W
b110011 _
b110011 e
b110011 j
b110011 s
b1011111111 :
b1011111111 Y
b100110 7
b100110 Z
b100110 ^
b100110 b
1%
#76
0%
#77
b11110000 0
b11110000 o
b11110000 p
b11110000 r
b10000 L
b11110000 =
b11110000 I
b11110000 m
b11110000 O
b11110000 J
b11110000 ?
b11110000 M
b11110000 l
1E
b10 3
b10 T
b10 i
b10 4
b10 S
b10 d
0F
b11110000 G
b11110000 \
b11110000 h
b11 8
b11 P
b1111110000 :
b1111110000 Y
b100111 7
b100111 Z
b100111 ^
b100111 b
b11111111 !
b11111111 6
b11111111 `
b11111111 f
b11111111 k
b11111111 q
b100 /
b100 Q
b100 t
1v
1%
#78
0%
#79
b0x00 /
b0x00 Q
b0x00 t
0C
b1111 0
b1111 o
b1111 p
b1111 r
b11110000 @
b11110000 N
b11110000 g
b100000000 L
b1111 =
b1111 I
b1111 m
b1111 O
b101 >
b101 K
b101 R
1F
b0 3
b0 T
b0 i
b1 4
b1 S
b1 d
0E
b11110000 <
b11110000 X
b11110000 a
b111100000 J
b11110000 ?
b11110000 M
b11110000 l
b0 G
b0 \
b0 h
b10101 8
b10101 P
b11110000 "
b11110000 5
b11110000 W
b11110000 _
b11110000 e
b11110000 j
b11110000 s
b1010100000000 :
b1010100000000 Y
b101000 7
b101000 Z
b101000 ^
b101000 b
1%
#80
0%
#81
b11110001 L
b0 @
b0 N
b0 g
b1111 J
b1111 ?
b1111 M
b1111 l
b10 3
b10 T
b10 i
b0 >
b0 K
b0 R
b10 4
b10 S
b10 d
1F
b1111 G
b1111 \
b1111 h
b10 8
b10 P
b1000001111 :
b1000001111 Y
b101001 7
b101001 Z
b101001 ^
b101001 b
b1111 !
b1111 6
b1111 `
b1111 f
b1111 k
b1111 q
b0 /
b0 Q
b0 t
0v
1%
#82
0%
#83
b0x00 /
b0x00 Q
b0x00 t
1C
b11111111 0
b11111111 o
b11111111 p
b11111111 r
b1 L
b11111111 =
b11111111 I
b11111111 m
b11111111 O
b11111111 J
b11111111 ?
b11111111 M
b11111111 l
1E
b10 3
b10 T
b10 i
b10 4
b10 S
b10 d
0F
b11111111 G
b11111111 \
b11111111 h
b11 8
b11 P
b1111111111 :
b1111111111 Y
b101010 7
b101010 Z
b101010 ^
b101010 b
1%
#84
0%
#85
b11110000 0
b11110000 o
b11110000 p
b11110000 r
b11110000 =
b11110000 I
b11110000 m
b11110000 O
b100000000 L
b1111 @
b1111 N
b1111 g
b11110 J
b1111 ?
b1111 M
b1111 l
b110 >
b110 K
b110 R
b1 3
b1 T
b1 i
b0 4
b0 S
b0 d
1E
b0 G
b0 \
b0 h
b10110 8
b10110 P
b11111111 <
b11111111 X
b11111111 a
b1011000000000 :
b1011000000000 Y
b101011 7
b101011 Z
b101011 ^
b101011 b
b11111111 "
b11111111 5
b11111111 W
b11111111 _
b11111111 e
b11111111 j
b11111111 s
b100 /
b100 Q
b100 t
1v
1%
#86
0%
