out/dump.vcd
$date
	Tue Oct  7 23:50:48 2025
$end
$version
	Icarus Verilog
$end
$timescale
	1s
$end
$scope module test $end
$var wire 8 ! regA_out [7:0] $end
$var wire 8 " regB_out [7:0] $end
$var reg 1 # add_test_failed $end
$var reg 1 $ and_test_failed $end
$var reg 1 % clk $end
$var reg 1 & inc_test_failed $end
$var reg 1 ' mov_test_failed $end
$var reg 1 ( not_test_failed $end
$var reg 1 ) or_test_failed $end
$var reg 1 * reg_mov_test_failed $end
$var reg 1 + shl_test_failed $end
$var reg 1 , shr_test_failed $end
$var reg 1 - sub_test_failed $end
$var reg 1 . xor_test_failed $end
$scope module Comp $end
$var wire 1 % clk $end
$var wire 8 / wb_data [7:0] $end
$var wire 1 0 wbSel $end
$var wire 4 1 status_bus [3:0] $end
$var wire 2 2 selMemData [1:0] $end
$var wire 2 3 selData [1:0] $end
$var wire 2 4 selB [1:0] $end
$var wire 2 5 selA [1:0] $end
$var wire 8 6 regB_out_bus [7:0] $end
$var wire 8 7 regA_out_bus [7:0] $end
$var wire 8 8 pc_out_bus [7:0] $end
$var wire 7 9 opcode [6:0] $end
$var wire 1 : mem_we $end
$var wire 15 ; im_out_bus [14:0] $end
$var wire 8 < dmem_out [7:0] $end
$var wire 8 = dmem_data_in [7:0] $end
$var wire 8 > dmem_addr [7:0] $end
$var wire 8 ? alu_out_bus [7:0] $end
$var wire 4 @ alu_op [3:0] $end
$var wire 8 A alu_b_bus [7:0] $end
$var wire 8 B alu_a_bus [7:0] $end
$var wire 1 C Z $end
$var wire 1 D V $end
$var wire 1 E N $end
$var wire 1 F LP $end
$var wire 1 G LB $end
$var wire 1 H LA $end
$var wire 8 I K [7:0] $end
$var wire 1 J C $end
$scope module ALU $end
$var wire 1 J C $end
$var wire 1 D V $end
$var wire 8 K out [7:0] $end
$var wire 9 L sum [8:0] $end
$var wire 4 M s [3:0] $end
$var wire 9 N diff [8:0] $end
$var wire 8 O b [7:0] $end
$var wire 8 P a [7:0] $end
$var wire 1 C Z $end
$var wire 1 E N $end
$var reg 1 Q C_r $end
$var reg 1 R V_r $end
$var reg 8 S out_r [7:0] $end
$upscope $end
$scope module CU $end
$var wire 7 T opcode [6:0] $end
$var wire 4 U status [3:0] $end
$var wire 1 V Z $end
$var wire 1 W V $end
$var wire 1 X N $end
$var wire 1 Y C $end
$var parameter 4 Z ALU_ADD $end
$var parameter 4 [ ALU_AND $end
$var parameter 4 \ ALU_CLR $end
$var parameter 4 ] ALU_INC $end
$var parameter 4 ^ ALU_NOT $end
$var parameter 4 _ ALU_SHL $end
$var parameter 4 ` ALU_SHR $end
$var parameter 4 a ALU_SUB $end
$var parameter 4 b ALU_XOR $end
$var reg 1 H LA $end
$var reg 1 G LB $end
$var reg 1 F LP $end
$var reg 4 c alu_op [3:0] $end
$var reg 1 : mem_we $end
$var reg 2 d selA [1:0] $end
$var reg 2 e selB [1:0] $end
$var reg 2 f selData [1:0] $end
$var reg 2 g selMemData [1:0] $end
$var reg 1 0 wbSel $end
$upscope $end
$scope module DM $end
$var wire 1 : W $end
$var wire 1 % clk $end
$var wire 8 h data_out [7:0] $end
$var wire 8 i data_in [7:0] $end
$var wire 8 j address [7:0] $end
$upscope $end
$scope module IM $end
$var wire 15 k out [14:0] $end
$var wire 8 l address [7:0] $end
$var integer 32 m i [31:0] $end
$upscope $end
$scope module MUXD $end
$var wire 8 n K [7:0] $end
$var wire 2 o sel [1:0] $end
$var wire 8 p PC [7:0] $end
$var wire 8 q B [7:0] $end
$var wire 8 r A [7:0] $end
$var reg 8 s out [7:0] $end
$upscope $end
$scope module MUXMW $end
$var wire 8 t K [7:0] $end
$var wire 8 u alu_out [7:0] $end
$var wire 2 v sel [1:0] $end
$var wire 8 w B [7:0] $end
$var wire 8 x A [7:0] $end
$var reg 8 y out [7:0] $end
$upscope $end
$scope module PC $end
$var wire 1 % clk $end
$var reg 8 z pc [7:0] $end
$upscope $end
$scope module muxA $end
$var wire 8 { K_unused [7:0] $end
$var wire 8 | mem_data [7:0] $end
$var wire 2 } sel [1:0] $end
$var wire 8 ~ B [7:0] $end
$var wire 8 !" A [7:0] $end
$var reg 8 "" out [7:0] $end
$upscope $end
$scope module muxB $end
$var wire 8 #" K [7:0] $end
$var wire 8 $" mem_data [7:0] $end
$var wire 2 %" sel [1:0] $end
$var wire 8 &" B [7:0] $end
$var wire 8 '" A [7:0] $end
$var reg 8 (" out [7:0] $end
$upscope $end
$scope module muxWB $end
$var wire 8 )" alu_out [7:0] $end
$var wire 8 *" mem_out [7:0] $end
$var wire 1 0 sel $end
$var wire 8 +" out [7:0] $end
$upscope $end
$scope module regA $end
$var wire 1 % clk $end
$var wire 8 ," data [7:0] $end
$var wire 1 H load $end
$var reg 8 -" out [7:0] $end
$upscope $end
$scope module regB $end
$var wire 1 % clk $end
$var wire 8 ." data [7:0] $end
$var wire 1 G load $end
$var reg 8 /" out [7:0] $end
$upscope $end
$scope module status_reg $end
$var wire 1 J C_in $end
$var wire 1 E N_in $end
$var wire 1 D V_in $end
$var wire 1 C Z_in $end
$var wire 1 % clk $end
$var wire 4 0" status_out [3:0] $end
$var reg 1 1" C $end
$var reg 1 2" N $end
$var reg 1 3" V $end
$var reg 1 4" Z $end
$upscope $end
$upscope $end
$upscope $end
$enddefinitions $end
$comment Show the parameter values. $end
$dumpall
b100 b
b1 a
b1000 `
b111 _
b101 ^
b1001 ]
b1010 \
b10 [
b0 Z
$end
#0
$dumpvars
x4"
x3"
x2"
x1"
bx 0"
b0 /"
b101010 ."
b0 -"
b101010 ,"
b101010 +"
b0 *"
b101010 )"
b101010 ("
b0 '"
b0 &"
b10 %"
b0 $"
b101010 #"
b0 ""
b0 !"
b0 ~
b10 }
b0 |
b0 {
b0 z
b0 y
b0 x
b0 w
b0 v
b101010 u
b101010 t
b0 s
b0 r
b0 q
b0 p
b0 o
b101010 n
b100000000 m
b0 l
b1000101010 k
b0 j
b0 i
b0 h
b0 g
b0 f
b10 e
b10 d
b0 c
xY
xX
xW
xV
bx U
b10 T
b101010 S
0R
0Q
b0 P
b101010 O
b11010110 N
b0 M
b101010 L
b101010 K
0J
b101010 I
1H
0G
0F
0E
0D
0C
b0 B
b101010 A
b0 @
b101010 ?
b0 >
b0 =
b0 <
b1000101010 ;
0:
b10 9
b0 8
b0 7
b0 6
b10 5
b10 4
b0 3
b0 2
bx 1
00
b101010 /
0.
0-
0,
0+
0*
0)
0(
0'
0&
0%
0$
0#
b0 "
b0 !
$end
#1
b1111011 /
b1111011 +"
b1111011 ,"
b1111011 ."
b10000101 N
0C
b1111011 ?
b1111011 K
b1111011 u
b1111011 )"
b1111011 S
1G
b10 4
b10 e
b10 %"
b10 5
b10 d
b10 }
0H
b1111011 I
b1111011 n
b1111011 t
b1111011 #"
b11 9
b11 T
b1111011 L
b1111011 A
b1111011 O
b1111011 ("
0Y
0W
0X
0V
b1101111011 ;
b1101111011 k
b1 8
b1 l
b1 p
b1 z
b101010 !
b101010 7
b101010 r
b101010 x
b101010 !"
b101010 '"
b101010 -"
01"
03"
02"
b0 1
b0 U
b0 0"
04"
1%
#2
0%
#3
b1010101 /
b1010101 +"
b1010101 ,"
b1010101 ."
b10101011 N
0C
b1010101 ?
b1010101 K
b1010101 u
b1010101 )"
b1010101 S
bx <
bx h
bx |
bx $"
bx *"
b1111011 >
b1111011 j
b1111011 s
b1111011 =
b1111011 i
b1111011 y
b1010101 L
b1010101 A
b1010101 O
b1010101 ("
b1010101 I
b1010101 n
b1010101 t
b1010101 #"
b1111011 "
b1111011 6
b1111011 q
b1111011 w
b1111011 ~
b1111011 &"
b1111011 /"
b1101010101 ;
b1101010101 k
b10 8
b10 l
b10 p
b10 z
1%
#4
0%
#5
1E
b10101010 /
b10101010 +"
b10101010 ,"
b10101010 ."
b1010110 N
1H
b10 4
b10 e
b10 %"
b10 5
b10 d
b10 }
0G
0C
b10101010 ?
b10101010 K
b10101010 u
b10101010 )"
b10101010 S
b10101010 I
b10101010 n
b10101010 t
b10101010 #"
b10 9
b10 T
b1010101 >
b1010101 j
b1010101 s
b1010101 =
b1010101 i
b1010101 y
b10101010 L
b10101010 A
b10101010 O
b10101010 ("
b1010101010 ;
b1010101010 k
b11 8
b11 l
b11 p
b11 z
b1010101 "
b1010101 6
b1010101 q
b1010101 w
b1010101 ~
b1010101 &"
b1010101 /"
1%
#6
0%
#7
0E
b1010101 /
b1010101 +"
b1010101 ,"
b1010101 ."
b10101011 N
0C
b1010101 ?
b1010101 K
b1010101 u
b1010101 )"
b1010101 S
b0 4
b0 e
b0 %"
b10 5
b10 d
b10 }
1H
1X
b1010101 L
b1010101 A
b1010101 O
b1010101 ("
b0 I
b0 n
b0 t
b0 #"
b0 9
b0 T
b100 1
b100 U
b100 0"
12"
b10101010 !
b10101010 7
b10101010 r
b10101010 x
b10101010 !"
b10101010 '"
b10101010 -"
b0 ;
b0 k
b100 8
b100 l
b100 p
b100 z
1%
#8
0%
#9
b1100011 /
b1100011 +"
b1100011 ,"
b1100011 ."
b10011101 N
0C
b1100011 ?
b1100011 K
b1100011 u
b1100011 )"
b1100011 S
b10 4
b10 e
b10 %"
b10 5
b10 d
b10 }
1H
b1100011 I
b1100011 n
b1100011 t
b1100011 #"
b10 9
b10 T
b1100011 L
b1100011 A
b1100011 O
b1100011 ("
0X
b1001100011 ;
b1001100011 k
b101 8
b101 l
b101 p
b101 z
b1010101 !
b1010101 7
b1010101 r
b1010101 x
b1010101 !"
b1010101 '"
b1010101 -"
b0 1
b0 U
b0 0"
02"
1%
#10
0%
#11
b1100011 /
b1100011 +"
b1100011 ,"
b1100011 ."
b10011101 N
0C
b1100011 ?
b1100011 K
b1100011 u
b1100011 )"
b1100011 S
1G
b1 4
b1 e
b1 %"
b10 5
b10 d
b10 }
0H
b1100011 L
b1100011 A
b1100011 O
b1100011 ("
b0 I
b0 n
b0 t
b0 #"
b1 9
b1 T
b1100011 !
b1100011 7
b1100011 r
b1100011 x
b1100011 !"
b1100011 '"
b1100011 -"
b100000000 ;
b100000000 k
b110 8
b110 l
b110 p
b110 z
1%
#12
0%
#13
b10 /
b10 +"
b10 ,"
b10 ."
b11111110 N
1H
b10 4
b10 e
b10 %"
b10 5
b10 d
b10 }
0G
0C
b10 ?
b10 K
b10 u
b10 )"
b10 S
b10 I
b10 n
b10 t
b10 #"
b10 9
b10 T
b1100011 >
b1100011 j
b1100011 s
b1100011 =
b1100011 i
b1100011 y
b10 L
b10 A
b10 O
b10 ("
b1000000010 ;
b1000000010 k
b111 8
b111 l
b111 p
b111 z
b1100011 "
b1100011 6
b1100011 q
b1100011 w
b1100011 ~
b1100011 &"
b1100011 /"
1%
#14
0%
#15
b11 /
b11 +"
b11 ,"
b11 ."
b11111101 N
0C
b11 ?
b11 K
b11 u
b11 )"
b11 S
1G
b10 4
b10 e
b10 %"
b10 5
b10 d
b10 }
0H
b11 L
b11 A
b11 O
b11 ("
b11 I
b11 n
b11 t
b11 #"
b11 9
b11 T
b10 !
b10 7
b10 r
b10 x
b10 !"
b10 '"
b10 -"
b1100000011 ;
b1100000011 k
b1000 8
b1000 l
b1000 p
b1000 z
1%
#16
0%
#17
b101 /
b101 +"
b101 ,"
b101 ."
b10 B
b10 P
b10 ""
b11111111 N
1H
b0 4
b0 e
b0 %"
b0 5
b0 d
b0 }
0G
0C
b101 ?
b101 K
b101 u
b101 )"
b101 S
b0 I
b0 n
b0 t
b0 #"
b100 9
b100 T
b0 <
b0 h
b0 |
b0 $"
b0 *"
b11 >
b11 j
b11 s
b11 =
b11 i
b11 y
b101 L
b11 A
b11 O
b11 ("
b10000000000 ;
b10000000000 k
b1001 8
b1001 l
b1001 p
b1001 z
b11 "
b11 6
b11 q
b11 w
b11 ~
b11 &"
b11 /"
1%
#18
0%
#19
b1111 /
b1111 +"
b1111 ,"
b1111 ."
0C
b1111 ?
b1111 K
b1111 u
b1111 )"
b1111 S
b10 4
b10 e
b10 %"
1H
b11111011 N
b101 B
b101 P
b101 ""
b1111 L
b1010 A
b1010 O
b1010 ("
b1010 I
b1010 n
b1010 t
b1010 #"
b110 9
b110 T
b101 !
b101 7
b101 r
b101 x
b101 !"
b101 '"
b101 -"
b11000001010 ;
b11000001010 k
b1010 8
b1010 l
b1010 p
b1010 z
1%
#20
0%
#21
b10111 /
b10111 +"
b10111 ,"
b10111 ."
b1 5
b1 d
b1 }
1G
b10 4
b10 e
b10 %"
0H
0C
b10111 ?
b10111 K
b10111 u
b10111 )"
b10111 S
b10100 I
b10100 n
b10100 t
b10100 #"
b111 9
b111 T
b11101111 N
b11 B
b11 P
b11 ""
b10111 L
b10100 A
b10100 O
b10100 ("
b11100010100 ;
b11100010100 k
b1011 8
b1011 l
b1011 p
b1011 z
b1111 !
b1111 7
b1111 r
b1111 x
b1111 !"
b1111 '"
b1111 -"
1%
#22
0%
#23
b10100 /
b10100 +"
b10100 ,"
b10100 ."
0C
b10100 ?
b10100 K
b10100 u
b10100 )"
b10100 S
1H
b10 4
b10 e
b10 %"
b10 5
b10 d
b10 }
0G
bx <
bx h
bx |
bx $"
bx *"
b10111 >
b10111 j
b10111 s
b10111 =
b10111 i
b10111 y
b11101100 N
b0 B
b0 P
b0 ""
b10100 L
b10100 A
b10100 O
b10100 ("
b10 9
b10 T
b10111 "
b10111 6
b10111 q
b10111 w
b10111 ~
b10111 &"
b10111 /"
b1000010100 ;
b1000010100 k
b1100 8
b1100 l
b1100 p
b1100 z
1%
#24
0%
#25
b101 /
b101 +"
b101 ,"
b101 ."
b11111011 N
1G
b10 4
b10 e
b10 %"
b10 5
b10 d
b10 }
0H
0C
b101 ?
b101 K
b101 u
b101 )"
b101 S
b101 I
b101 n
b101 t
b101 #"
b11 9
b11 T
b101 L
b101 A
b101 O
b101 ("
b1100000101 ;
b1100000101 k
b1101 8
b1101 l
b1101 p
b1101 z
b10100 !
b10100 7
b10100 r
b10100 x
b10100 !"
b10100 '"
b10100 -"
1%
#26
0%
#27
0E
b1111 /
b1111 +"
b1111 ,"
b1111 ."
b10100 B
b10100 P
b10100 ""
b100001111 N
0J
0Q
0C
b1111 ?
b1111 K
b1111 u
b1111 )"
b1111 S
b1 @
b1 M
b1 c
1H
b0 4
b0 e
b0 %"
b0 5
b0 d
b0 }
0G
b0 <
b0 h
b0 |
b0 $"
b0 *"
b101 >
b101 j
b101 s
b101 =
b101 i
b101 y
b11001 L
b101 A
b101 O
b101 ("
b0 I
b0 n
b0 t
b0 #"
b1000 9
b1000 T
b101 "
b101 6
b101 q
b101 w
b101 ~
b101 &"
b101 /"
b100000000000 ;
b100000000000 k
b1110 8
b1110 l
b1110 p
b1110 z
1%
#28
0%
#29
b1010 /
b1010 +"
b1010 ,"
b1010 ."
1G
b1 @
b1 M
b1 c
0H
0C
b1010 ?
b1010 K
b1010 u
b1010 )"
b1010 S
b1001 9
b1001 T
b100001010 N
b1111 B
b1111 P
b1111 ""
b10100 L
b101 A
b101 O
b101 ("
b100100000000 ;
b100100000000 k
b1111 8
b1111 l
b1111 p
b1111 z
b1111 !
b1111 7
b1111 r
b1111 x
b1111 !"
b1111 '"
b1111 -"
1%
#30
0%
#31
b1000 /
b1000 +"
b1000 ,"
b1000 ."
0C
b1000 ?
b1000 K
b1000 u
b1000 )"
b1000 S
b10 4
b10 e
b10 %"
1H
b1 @
b1 M
b1 c
0G
bx <
bx h
bx |
bx $"
bx *"
b1010 >
b1010 j
b1010 s
b1010 =
b1010 i
b1010 y
b100001000 N
b1111 B
b1111 P
b1111 ""
b10110 L
b111 A
b111 O
b111 ("
b111 I
b111 n
b111 t
b111 #"
b1010 9
b1010 T
b1010 "
b1010 6
b1010 q
b1010 w
b1010 ~
b1010 &"
b1010 /"
b101000000111 ;
b101000000111 k
b10000 8
b10000 l
b10000 p
b10000 z
1%
#32
0%
#33
b0 /
b0 +"
b0 ,"
b0 ."
b1 5
b1 d
b1 }
1G
b1 @
b1 M
b1 c
b10 4
b10 e
b10 %"
0H
1C
b0 ?
b0 K
b0 u
b0 )"
b0 S
b1010 I
b1010 n
b1010 t
b1010 #"
b1011 9
b1011 T
b100000000 N
b1010 B
b1010 P
b1010 ""
b10100 L
b1010 A
b1010 O
b1010 ("
b101100001010 ;
b101100001010 k
b10001 8
b10001 l
b10001 p
b10001 z
b1000 !
b1000 7
b1000 r
b1000 x
b1000 !"
b1000 '"
b1000 -"
1%
#34
0%
#35
1E
b11001010 /
b11001010 +"
b11001010 ,"
b11001010 ."
0C
b11001010 ?
b11001010 K
b11001010 u
b11001010 )"
b11001010 S
1H
b0 @
b0 M
b0 c
b10 4
b10 e
b10 %"
b10 5
b10 d
b10 }
0G
1V
b0 <
b0 h
b0 |
b0 $"
b0 *"
b0 >
b0 j
b0 s
b0 =
b0 i
b0 y
b110110 N
b0 B
b0 P
b0 ""
b11001010 L
b11001010 A
b11001010 O
b11001010 ("
b11001010 I
b11001010 n
b11001010 t
b11001010 #"
b10 9
b10 T
b1000 1
b1000 U
b1000 0"
14"
b0 "
b0 6
b0 q
b0 w
b0 ~
b0 &"
b0 /"
b1011001010 ;
b1011001010 k
b10010 8
b10010 l
b10010 p
b10010 z
1%
#36
0%
#37
b10101110 /
b10101110 +"
b10101110 ,"
b10101110 ."
b1010010 N
0C
b10101110 ?
b10101110 K
b10101110 u
b10101110 )"
b10101110 S
1G
b10 4
b10 e
b10 %"
b10 5
b10 d
b10 }
0H
b10101110 I
b10101110 n
b10101110 t
b10101110 #"
b11 9
b11 T
b10101110 L
b10101110 A
b10101110 O
b10101110 ("
1X
0V
b1110101110 ;
b1110101110 k
b10011 8
b10011 l
b10011 p
b10011 z
b11001010 !
b11001010 7
b11001010 r
b11001010 x
b11001010 !"
b11001010 '"
b11001010 -"
12"
b100 1
b100 U
b100 0"
04"
1%
#38
0%
#39
1E
b10001010 /
b10001010 +"
b10001010 ,"
b10001010 ."
b11001010 B
b11001010 P
b11001010 ""
b100011100 N
0C
b10001010 ?
b10001010 K
b10001010 u
b10001010 )"
b10001010 S
b10 @
b10 M
b10 c
1H
b0 4
b0 e
b0 %"
b0 5
b0 d
b0 }
0G
bx <
bx h
bx |
bx $"
bx *"
b10101110 >
b10101110 j
b10101110 s
b10101110 =
b10101110 i
b10101110 y
b101111000 L
b10101110 A
b10101110 O
b10101110 ("
b0 I
b0 n
b0 t
b0 #"
b1100 9
b1100 T
b10101110 "
b10101110 6
b10101110 q
b10101110 w
b10101110 ~
b10101110 &"
b10101110 /"
b110000000000 ;
b110000000000 k
b10100 8
b10100 l
b10100 p
b10100 z
1%
#40
0%
#41
b1 4
b1 e
b1 %"
b1 5
b1 d
b1 }
1G
b10 @
b10 M
b10 c
0H
0C
b10001010 ?
b10001010 K
b10001010 u
b10001010 )"
b10001010 S
b1101 9
b1101 T
b100100100 N
b10101110 B
b10101110 P
b10101110 ""
b100111000 L
b10001010 A
b10001010 O
b10001010 ("
b110100000000 ;
b110100000000 k
b10101 8
b10101 l
b10101 p
b10101 z
b10001010 !
b10001010 7
b10001010 r
b10001010 x
b10001010 !"
b10001010 '"
b10001010 -"
1%
#42
0%
#43
1E
b11110000 /
b11110000 +"
b11110000 ,"
b11110000 ."
0D
0R
0J
0Q
0C
b11110000 ?
b11110000 K
b11110000 u
b11110000 )"
b11110000 S
1H
b0 @
b0 M
b0 c
b10 4
b10 e
b10 %"
b10 5
b10 d
b10 }
0G
b10001010 >
b10001010 j
b10001010 s
b10001010 =
b10001010 i
b10001010 y
b10000 N
b0 B
b0 P
b0 ""
b11110000 L
b11110000 A
b11110000 O
b11110000 ("
b11110000 I
b11110000 n
b11110000 t
b11110000 #"
b10 9
b10 T
b10001010 "
b10001010 6
b10001010 q
b10001010 w
b10001010 ~
b10001010 &"
b10001010 /"
b1011110000 ;
b1011110000 k
b10110 8
b10110 l
b10110 p
b10110 z
1%
#44
0%
#45
0E
b1010000 /
b1010000 +"
b1010000 ,"
b1010000 ."
b110011011 N
b11110000 B
b11110000 P
b11110000 ""
b10 @
b10 M
b10 c
b10 4
b10 e
b10 %"
b0 5
b0 d
b0 }
1H
0C
b1010000 ?
b1010000 K
b1010000 u
b1010000 )"
b1010000 S
b1010101 I
b1010101 n
b1010101 t
b1010101 #"
b1110 9
b1110 T
b101000101 L
b1010101 A
b1010101 O
b1010101 ("
b111001010101 ;
b111001010101 k
b10111 8
b10111 l
b10111 p
b10111 z
b11110000 !
b11110000 7
b11110000 r
b11110000 x
b11110000 !"
b11110000 '"
b11110000 -"
1%
#46
0%
#47
1E
b11001100 /
b11001100 +"
b11001100 ,"
b11001100 ."
0J
0Q
0C
b11001100 ?
b11001100 K
b11001100 u
b11001100 )"
b11001100 S
b10 5
b10 d
b10 }
1G
b0 @
b0 M
b0 c
b10 4
b10 e
b10 %"
0H
0X
b110100 N
b0 B
b0 P
b0 ""
b11001100 L
b11001100 A
b11001100 O
b11001100 ("
b11001100 I
b11001100 n
b11001100 t
b11001100 #"
b11 9
b11 T
b0 1
b0 U
b0 0"
02"
b1010000 !
b1010000 7
b1010000 r
b1010000 x
b1010000 !"
b1010000 '"
b1010000 -"
b1111001100 ;
b1111001100 k
b11000 8
b11000 l
b11000 p
b11000 z
1%
#48
0%
#49
1E
b10001000 /
b10001000 +"
b10001000 ,"
b10001000 ."
b100100010 N
b11001100 B
b11001100 P
b11001100 ""
0C
b10001000 ?
b10001000 K
b10001000 u
b10001000 )"
b10001000 S
b10 @
b10 M
b10 c
b10 4
b10 e
b10 %"
b1 5
b1 d
b1 }
1G
b10101010 I
b10101010 n
b10101010 t
b10101010 #"
b1111 9
b1111 T
b11001100 >
b11001100 j
b11001100 s
b11001100 =
b11001100 i
b11001100 y
b101110110 L
b10101010 A
b10101010 O
b10101010 ("
1X
b111110101010 ;
b111110101010 k
b11001 8
b11001 l
b11001 p
b11001 z
b11001100 "
b11001100 6
b11001100 q
b11001100 w
b11001100 ~
b11001100 &"
b11001100 /"
b100 1
b100 U
b100 0"
12"
1%
#50
0%
#51
1E
b11001010 /
b11001010 +"
b11001010 ,"
b11001010 ."
0D
0R
0J
0Q
0C
b11001010 ?
b11001010 K
b11001010 u
b11001010 )"
b11001010 S
1H
b0 @
b0 M
b0 c
b10 4
b10 e
b10 %"
b10 5
b10 d
b10 }
0G
b10001000 >
b10001000 j
b10001000 s
b10001000 =
b10001000 i
b10001000 y
b110110 N
b0 B
b0 P
b0 ""
b11001010 L
b11001010 A
b11001010 O
b11001010 ("
b11001010 I
b11001010 n
b11001010 t
b11001010 #"
b10 9
b10 T
b10001000 "
b10001000 6
b10001000 q
b10001000 w
b10001000 ~
b10001000 &"
b10001000 /"
b1011001010 ;
b1011001010 k
b11010 8
b11010 l
b11010 p
b11010 z
1%
#52
0%
#53
b10101110 /
b10101110 +"
b10101110 ,"
b10101110 ."
b1010010 N
1G
b10 4
b10 e
b10 %"
b10 5
b10 d
b10 }
0H
0C
b10101110 ?
b10101110 K
b10101110 u
b10101110 )"
b10101110 S
b10101110 I
b10101110 n
b10101110 t
b10101110 #"
b11 9
b11 T
b10101110 L
b10101110 A
b10101110 O
b10101110 ("
b1110101110 ;
b1110101110 k
b11011 8
b11011 l
b11011 p
b11011 z
b11001010 !
b11001010 7
b11001010 r
b11001010 x
b11001010 !"
b11001010 '"
b11001010 -"
1%
#54
0%
#55
1E
b11101110 /
b11101110 +"
b11101110 ,"
b11101110 ."
b11001010 B
b11001010 P
b11001010 ""
b100011100 N
0C
b11101110 ?
b11101110 K
b11101110 u
b11101110 )"
b11101110 S
b11 @
b11 M
b11 c
1H
b0 4
b0 e
b0 %"
b0 5
b0 d
b0 }
0G
b10101110 >
b10101110 j
b10101110 s
b10101110 =
b10101110 i
b10101110 y
b101111000 L
b10101110 A
b10101110 O
b10101110 ("
b0 I
b0 n
b0 t
b0 #"
b10000 9
b10000 T
b10101110 "
b10101110 6
b10101110 q
b10101110 w
b10101110 ~
b10101110 &"
b10101110 /"
b1000000000000 ;
b1000000000000 k
b11100 8
b11100 l
b11100 p
b11100 z
1%
#56
0%
#57
b1 4
b1 e
b1 %"
b1 5
b1 d
b1 }
1G
b11 @
b11 M
b11 c
0H
0C
b11101110 ?
b11101110 K
b11101110 u
b11101110 )"
b11101110 S
b10001 9
b10001 T
b11000000 N
b10101110 B
b10101110 P
b10101110 ""
b110011100 L
b11101110 A
b11101110 O
b11101110 ("
b1000100000000 ;
b1000100000000 k
b11101 8
b11101 l
b11101 p
b11101 z
b11101110 !
b11101110 7
b11101110 r
b11101110 x
b11101110 !"
b11101110 '"
b11101110 -"
1%
#58
0%
#59
0E
b110011 /
b110011 +"
b110011 ,"
b110011 ."
0J
0Q
0C
b110011 ?
b110011 K
b110011 u
b110011 )"
b110011 S
1H
b0 @
b0 M
b0 c
b10 4
b10 e
b10 %"
b10 5
b10 d
b10 }
0G
b11101110 >
b11101110 j
b11101110 s
b11101110 =
b11101110 i
b11101110 y
b11001101 N
b0 B
b0 P
b0 ""
b110011 L
b110011 A
b110011 O
b110011 ("
b110011 I
b110011 n
b110011 t
b110011 #"
b10 9
b10 T
b11101110 "
b11101110 6
b11101110 q
b11101110 w
b11101110 ~
b11101110 &"
b11101110 /"
b1000110011 ;
b1000110011 k
b11110 8
b11110 l
b11110 p
b11110 z
1%
#60
0%
#61
1E
b11110011 /
b11110011 +"
b11110011 ,"
b11110011 ."
b1000011 N
b110011 B
b110011 P
b110011 ""
0C
b11110011 ?
b11110011 K
b11110011 u
b11110011 )"
b11110011 S
b11 @
b11 M
b11 c
b10 4
b10 e
b10 %"
b0 5
b0 d
b0 }
1H
b11110000 I
b11110000 n
b11110000 t
b11110000 #"
b10010 9
b10010 T
b100100011 L
b11110000 A
b11110000 O
b11110000 ("
0X
b1001011110000 ;
b1001011110000 k
b11111 8
b11111 l
b11111 p
b11111 z
b110011 !
b110011 7
b110011 r
b110011 x
b110011 !"
b110011 '"
b110011 -"
b0 1
b0 U
b0 0"
02"
1%
#62
0%
#63
b10100101 /
b10100101 +"
b10100101 ,"
b10100101 ."
0J
0Q
0C
b10100101 ?
b10100101 K
b10100101 u
b10100101 )"
b10100101 S
b10 5
b10 d
b10 }
1G
b0 @
b0 M
b0 c
b10 4
b10 e
b10 %"
0H
1X
b1011011 N
b0 B
b0 P
b0 ""
b10100101 L
b10100101 A
b10100101 O
b10100101 ("
b10100101 I
b10100101 n
b10100101 t
b10100101 #"
b11 9
b11 T
b100 1
b100 U
b100 0"
12"
b11110011 !
b11110011 7
b11110011 r
b11110011 x
b11110011 !"
b11110011 '"
b11110011 -"
b1110100101 ;
b1110100101 k
b100000 8
b100000 l
b100000 p
b100000 z
1%
#64
0%
#65
b11111111 /
b11111111 +"
b11111111 ,"
b11111111 ."
b101001011 N
b10100101 B
b10100101 P
b10100101 ""
b11 @
b11 M
b11 c
b10 4
b10 e
b10 %"
b1 5
b1 d
b1 }
1G
0C
b11111111 ?
b11111111 K
b11111111 u
b11111111 )"
b11111111 S
b1011010 I
b1011010 n
b1011010 t
b1011010 #"
b10011 9
b10011 T
b10100101 >
b10100101 j
b10100101 s
b10100101 =
b10100101 i
b10100101 y
b11111111 L
b1011010 A
b1011010 O
b1011010 ("
b1001101011010 ;
b1001101011010 k
b100001 8
b100001 l
b100001 p
b100001 z
b10100101 "
b10100101 6
b10100101 q
b10100101 w
b10100101 ~
b10100101 &"
b10100101 /"
1%
#66
0%
#67
b10101010 /
b10101010 +"
b10101010 ,"
b10101010 ."
0J
0Q
0C
b10101010 ?
b10101010 K
b10101010 u
b10101010 )"
b10101010 S
1H
b0 @
b0 M
b0 c
b10 4
b10 e
b10 %"
b10 5
b10 d
b10 }
0G
b11111111 >
b11111111 j
b11111111 s
b11111111 =
b11111111 i
b11111111 y
b1010110 N
b0 B
b0 P
b0 ""
b10101010 L
b10101010 A
b10101010 O
b10101010 ("
b10101010 I
b10101010 n
b10101010 t
b10101010 #"
b10 9
b10 T
b11111111 "
b11111111 6
b11111111 q
b11111111 w
b11111111 ~
b11111111 &"
b11111111 /"
b1010101010 ;
b1010101010 k
b100010 8
b100010 l
b100010 p
b100010 z
1%
#68
0%
#69
0E
b1010101 /
b1010101 +"
b1010101 ,"
b1010101 ."
b10101011 N
b10101010 B
b10101010 P
b10101010 ""
b101 @
b101 M
b101 c
b0 4
b0 e
b0 %"
b0 5
b0 d
b0 }
1H
0C
b1010101 ?
b1010101 K
b1010101 u
b1010101 )"
b1010101 S
b0 I
b0 n
b0 t
b0 #"
b10100 9
b10100 T
b110101001 L
b11111111 A
b11111111 O
b11111111 ("
b1010000000000 ;
b1010000000000 k
b100011 8
b100011 l
b100011 p
b100011 z
b10101010 !
b10101010 7
b10101010 r
b10101010 x
b10101010 !"
b10101010 '"
b10101010 -"
1%
#70
0%
#71
1E
b11001100 /
b11001100 +"
b11001100 ,"
b11001100 ."
0J
0Q
0C
b11001100 ?
b11001100 K
b11001100 u
b11001100 )"
b11001100 S
b10 4
b10 e
b10 %"
b10 5
b10 d
b10 }
1G
b0 @
b0 M
b0 c
0H
0X
b110100 N
b0 B
b0 P
b0 ""
b11001100 L
b11001100 A
b11001100 O
b11001100 ("
b11001100 I
b11001100 n
b11001100 t
b11001100 #"
b11 9
b11 T
b0 1
b0 U
b0 0"
02"
b1010101 !
b1010101 7
b1010101 r
b1010101 x
b1010101 !"
b1010101 '"
b1010101 -"
b1111001100 ;
b1111001100 k
b100100 8
b100100 l
b100100 p
b100100 z
1%
#72
0%
