out/dump.vcd
$date
	Wed Oct  8 13:47:51 2025
$end
$version
	Icarus Verilog
$end
$timescale
	1s
$end
$scope module test $end
$var wire 8 ! regA_out [7:0] $end
$var wire 8 " regB_out [7:0] $end
$var reg 1 # add_a_dir_test_failed $end
$var reg 1 $ and_a_b_ind_test_failed $end
$var reg 1 % clk $end
$var reg 1 & for_loop_test_failed $end
$var reg 1 ' inc_dir_test_failed $end
$var reg 1 ( jle_equal_test_failed $end
$var reg 1 ) mem_sequence_test_failed $end
$var reg 1 * not_b_ind_test_failed $end
$var reg 1 + or_b_dir_test_failed $end
$var reg 1 , rst_b_ind_test_failed $end
$var reg 1 - shl_dir_b_test_failed $end
$var reg 1 . shr_b_ind_test_failed $end
$var reg 1 / sub_dir_test_failed $end
$var reg 1 0 xor_a_dir_test_failed $end
$scope module Comp $end
$var wire 1 % clk $end
$var wire 8 1 wb_data [7:0] $end
$var wire 1 2 wbSel $end
$var wire 4 3 status_bus [3:0] $end
$var wire 2 4 selMemData [1:0] $end
$var wire 2 5 selData [1:0] $end
$var wire 2 6 selB [1:0] $end
$var wire 2 7 selA [1:0] $end
$var wire 8 8 regB_out_bus [7:0] $end
$var wire 8 9 regA_out_bus [7:0] $end
$var wire 8 : pc_out_bus [7:0] $end
$var wire 7 ; opcode [6:0] $end
$var wire 1 < mem_we $end
$var wire 15 = im_out_bus [14:0] $end
$var wire 8 > dmem_out [7:0] $end
$var wire 8 ? dmem_data_in [7:0] $end
$var wire 8 @ dmem_addr [7:0] $end
$var wire 8 A alu_out_bus [7:0] $end
$var wire 4 B alu_op [3:0] $end
$var wire 8 C alu_b_bus [7:0] $end
$var wire 8 D alu_a_bus [7:0] $end
$var wire 1 E Z $end
$var wire 1 F V $end
$var wire 1 G N $end
$var wire 1 H LP $end
$var wire 1 I LB $end
$var wire 1 J LA $end
$var wire 8 K K [7:0] $end
$var wire 1 L C $end
$scope module ALU $end
$var wire 1 L C $end
$var wire 1 F V $end
$var wire 8 M out [7:0] $end
$var wire 9 N sum [8:0] $end
$var wire 4 O s [3:0] $end
$var wire 9 P diff [8:0] $end
$var wire 8 Q b [7:0] $end
$var wire 8 R a [7:0] $end
$var wire 1 E Z $end
$var wire 1 G N $end
$var reg 1 S C_r $end
$var reg 1 T V_r $end
$var reg 8 U out_r [7:0] $end
$upscope $end
$scope module CU $end
$var wire 7 V opcode [6:0] $end
$var wire 4 W status [3:0] $end
$var wire 1 X Z $end
$var wire 1 Y V $end
$var wire 1 Z N $end
$var wire 1 [ C $end
$var parameter 4 \ ALU_ADD $end
$var parameter 4 ] ALU_AND $end
$var parameter 4 ^ ALU_CLR $end
$var parameter 4 _ ALU_INC $end
$var parameter 4 ` ALU_NOT $end
$var parameter 4 a ALU_SHL $end
$var parameter 4 b ALU_SHR $end
$var parameter 4 c ALU_SUB $end
$var parameter 4 d ALU_XOR $end
$var reg 1 J LA $end
$var reg 1 I LB $end
$var reg 1 H LP $end
$var reg 4 e alu_op [3:0] $end
$var reg 1 < mem_we $end
$var reg 2 f selA [1:0] $end
$var reg 2 g selB [1:0] $end
$var reg 2 h selData [1:0] $end
$var reg 2 i selMemData [1:0] $end
$var reg 1 2 wbSel $end
$upscope $end
$scope module DM $end
$var wire 1 < W $end
$var wire 1 % clk $end
$var wire 8 j data_out [7:0] $end
$var wire 8 k data_in [7:0] $end
$var wire 8 l address [7:0] $end
$upscope $end
$scope module IM $end
$var wire 15 m out [14:0] $end
$var wire 8 n address [7:0] $end
$var integer 32 o i [31:0] $end
$upscope $end
$scope module MUXD $end
$var wire 8 p K [7:0] $end
$var wire 2 q sel [1:0] $end
$var wire 8 r PC [7:0] $end
$var wire 8 s B [7:0] $end
$var wire 8 t A [7:0] $end
$var reg 8 u out [7:0] $end
$upscope $end
$scope module MUXMW $end
$var wire 8 v K [7:0] $end
$var wire 8 w alu_out [7:0] $end
$var wire 2 x sel [1:0] $end
$var wire 8 y B [7:0] $end
$var wire 8 z A [7:0] $end
$var reg 8 { out [7:0] $end
$upscope $end
$scope module PC $end
$var wire 1 % clk $end
$var reg 8 | pc [7:0] $end
$upscope $end
$scope module muxA $end
$var wire 8 } K_unused [7:0] $end
$var wire 8 ~ mem_data [7:0] $end
$var wire 2 !" sel [1:0] $end
$var wire 8 "" B [7:0] $end
$var wire 8 #" A [7:0] $end
$var reg 8 $" out [7:0] $end
$upscope $end
$scope module muxB $end
$var wire 8 %" K [7:0] $end
$var wire 8 &" mem_data [7:0] $end
$var wire 2 '" sel [1:0] $end
$var wire 8 (" B [7:0] $end
$var wire 8 )" A [7:0] $end
$var reg 8 *" out [7:0] $end
$upscope $end
$scope module muxWB $end
$var wire 8 +" alu_out [7:0] $end
$var wire 8 ," mem_out [7:0] $end
$var wire 1 2 sel $end
$var wire 8 -" out [7:0] $end
$upscope $end
$scope module regA $end
$var wire 1 % clk $end
$var wire 8 ." data [7:0] $end
$var wire 1 J load $end
$var reg 8 /" out [7:0] $end
$upscope $end
$scope module regB $end
$var wire 1 % clk $end
$var wire 8 0" data [7:0] $end
$var wire 1 I load $end
$var reg 8 1" out [7:0] $end
$upscope $end
$scope module status_reg $end
$var wire 1 L C_in $end
$var wire 1 G N_in $end
$var wire 1 F V_in $end
$var wire 1 E Z_in $end
$var wire 1 % clk $end
$var wire 4 2" status_out [3:0] $end
$var reg 1 3" C $end
$var reg 1 4" N $end
$var reg 1 5" V $end
$var reg 1 6" Z $end
$upscope $end
$upscope $end
$upscope $end
$enddefinitions $end
$comment Show the parameter values. $end
$dumpall
b100 d
b1 c
b1000 b
b111 a
b101 `
b1001 _
b1010 ^
b10 ]
b0 \
$end
#0
$dumpvars
x6"
x5"
x4"
x3"
bx 2"
b0 1"
b1100011 0"
b0 /"
b1100011 ."
b1100011 -"
b0 ,"
b1100011 +"
b1100011 *"
b0 )"
b0 ("
b10 '"
b0 &"
b1100011 %"
b0 $"
b0 #"
b0 ""
b10 !"
b0 ~
b0 }
b0 |
b0 {
b0 z
b0 y
b0 x
b1100011 w
b1100011 v
b0 u
b0 t
b0 s
b0 r
b0 q
b1100011 p
b100000000 o
b0 n
b1101100011 m
b0 l
b0 k
b0 j
b0 i
b0 h
b10 g
b10 f
b0 e
x[
xZ
xY
xX
bx W
b11 V
b1100011 U
0T
0S
b0 R
b1100011 Q
b10011101 P
b0 O
b1100011 N
b1100011 M
0L
b1100011 K
0J
1I
0H
0G
0F
0E
b0 D
b1100011 C
b0 B
b1100011 A
b0 @
b0 ?
b0 >
b1101100011 =
0<
b11 ;
b0 :
b0 9
b0 8
b10 7
b10 6
b0 5
b0 4
bx 3
02
b1100011 1
00
0/
0.
0-
0,
0+
0*
0)
0(
0'
0&
0%
0$
0#
b0 "
b0 !
$end
#1
0E
b1100011 A
b1100011 M
b1100011 w
b1100011 +"
b1100011 U
b10 5
b10 h
b10 q
1<
b0 6
b0 g
b0 '"
b0 7
b0 f
b0 !"
0I
b110010 K
b110010 p
b110010 v
b110010 %"
b101000 ;
b101000 V
bx >
bx j
bx ~
bx &"
bx ,"
b110010 @
b110010 l
b110010 u
b1100011 ?
b1100011 k
b1100011 {
b1100011 N
b1100011 C
b1100011 Q
b1100011 *"
0[
0Y
0Z
0X
b10100000110010 =
b10100000110010 m
b1 :
b1 n
b1 r
b1 |
b1100011 "
b1100011 8
b1100011 s
b1100011 y
b1100011 ""
b1100011 ("
b1100011 1"
03"
05"
04"
b0 3
b0 W
b0 2"
06"
1%
#2
0%
#3
0E
b1100011 A
b1100011 M
b1100011 w
b1100011 +"
b1100011 U
12
1J
b10 5
b10 h
b10 q
0<
b1100011 N
b1100011 C
b1100011 Q
b1100011 *"
b100101 ;
b100101 V
b1100011 >
b1100011 j
b1100011 ~
b1100011 &"
b1100011 ,"
b10010100110010 =
b10010100110010 m
b10 :
b10 n
b10 r
b10 |
1%
#4
0%
#5
b1111011 1
b1111011 -"
b1111011 ."
b1111011 0"
0G
bx >
bx j
bx ~
bx &"
bx ,"
b1100011 @
b1100011 l
b1100011 u
b10 6
b10 g
b10 '"
b10 7
b10 f
b10 !"
b0 5
b0 h
b0 q
02
1J
0F
0T
0E
b1111011 A
b1111011 M
b1111011 w
b1111011 +"
b1111011 U
b1111011 K
b1111011 p
b1111011 v
b1111011 %"
b10 ;
b10 V
b10000101 P
b0 D
b0 R
b0 $"
b1111011 N
b1111011 C
b1111011 Q
b1111011 *"
b1001111011 =
b1001111011 m
b11 :
b11 n
b11 r
b11 |
b1100011 !
b1100011 9
b1100011 t
b1100011 z
b1100011 #"
b1100011 )"
b1100011 /"
1%
#6
0%
#7
1G
1F
1T
b11011110 1
b11011110 -"
b11011110 ."
b11011110 0"
b1111011 ?
b1111011 k
b1111011 {
b110011 @
b110011 l
b110011 u
b1111011 D
b1111011 R
b1111011 $"
b100011000 P
0E
b11011110 A
b11011110 M
b11011110 w
b11011110 +"
b11011110 U
b1 4
b1 i
b1 x
b10 5
b10 h
b10 q
1<
b0 6
b0 g
b0 '"
b0 7
b0 f
b0 !"
0J
b11011110 N
b1100011 C
b1100011 Q
b1100011 *"
b110011 K
b110011 p
b110011 v
b110011 %"
b100111 ;
b100111 V
b1111011 !
b1111011 9
b1111011 t
b1111011 z
b1111011 #"
b1111011 )"
b1111011 /"
b10011100110011 =
b10011100110011 m
b100 :
b100 n
b100 r
b100 |
1%
#8
0%
#9
b1111011 1
b1111011 -"
b1111011 ."
b1111011 0"
b1100011 ?
b1100011 k
b1100011 {
1F
1T
0E
b11011110 A
b11011110 M
b11011110 w
b11011110 +"
b11011110 U
12
1I
b0 4
b0 i
b0 x
b10 5
b10 h
b10 q
0<
b100110 ;
b100110 V
b100011000 P
b1111011 D
b1111011 R
b1111011 $"
b11011110 N
b1100011 C
b1100011 Q
b1100011 *"
1Y
1Z
b10011000110011 =
b10011000110011 m
b101 :
b101 n
b101 r
b101 |
b1111011 >
b1111011 j
b1111011 ~
b1111011 &"
b1111011 ,"
15"
b101 3
b101 W
b101 2"
14"
1%
#10
0%
#11
b11111111 1
b11111111 -"
b11111111 ."
b11111111 0"
0F
0T
0E
b11111111 A
b11111111 M
b11111111 w
b11111111 +"
b11111111 U
b10 6
b10 g
b10 '"
b10 7
b10 f
b10 !"
1J
b0 5
b0 h
b0 q
02
0I
bx >
bx j
bx ~
bx &"
bx ,"
b1111011 @
b1111011 l
b1111011 u
b1111011 ?
b1111011 k
b1111011 {
b1 P
b0 D
b0 R
b0 $"
b11111111 N
b11111111 C
b11111111 Q
b11111111 *"
b11111111 K
b11111111 p
b11111111 v
b11111111 %"
b10 ;
b10 V
b1111011 "
b1111011 8
b1111011 s
b1111011 y
b1111011 ""
b1111011 ("
b1111011 1"
b1011111111 =
b1011111111 m
b110 :
b110 n
b110 r
b110 |
1%
#12
0%
#13
0G
b1111010 1
b1111010 -"
b1111010 ."
b1111010 0"
1L
1S
b110000100 P
b11111111 D
b11111111 R
b11111111 $"
b1100011 >
b1100011 j
b1100011 ~
b1100011 &"
b1100011 ,"
b110010 @
b110010 l
b110010 u
b11111111 ?
b11111111 k
b11111111 {
0E
b1111010 A
b1111010 M
b1111010 w
b1111010 +"
b1111010 U
b1 4
b1 i
b1 x
b10 5
b10 h
b10 q
1<
b0 6
b0 g
b0 '"
b0 7
b0 f
b0 !"
0J
b110010 K
b110010 p
b110010 v
b110010 %"
b100111 ;
b100111 V
b101111010 N
b1111011 C
b1111011 Q
b1111011 *"
0Y
b10011100110010 =
b10011100110010 m
b111 :
b111 n
b111 r
b111 |
b11111111 !
b11111111 9
b11111111 t
b11111111 z
b11111111 #"
b11111111 )"
b11111111 /"
b100 3
b100 W
b100 2"
05"
1%
#14
0%
#15
b0 1
b0 -"
b0 ."
b0 0"
0L
0S
1E
b0 A
b0 M
b0 w
b0 +"
b0 U
b1111011 @
b1111011 l
b1111011 u
b1111011 ?
b1111011 k
b1111011 {
b10 6
b10 g
b10 '"
b10 7
b10 f
b10 !"
1J
b0 4
b0 i
b0 x
b0 5
b0 h
b0 q
0<
1[
0Z
b100000000 P
b0 D
b0 R
b0 $"
b0 N
b0 C
b0 Q
b0 *"
b0 K
b0 p
b0 v
b0 %"
b10 ;
b10 V
13"
b10 3
b10 W
b10 2"
04"
bx >
bx j
bx ~
bx &"
bx ,"
b1000000000 =
b1000000000 m
b1000 :
b1000 n
b1000 r
b1000 |
1%
#16
0%
#17
b10000101 P
0E
b1111011 A
b1111011 M
b1111011 w
b1111011 +"
b1111011 U
b11111111 1
b11111111 -"
b11111111 ."
b11111111 0"
b11111111 >
b11111111 j
b11111111 ~
b11111111 &"
b11111111 ,"
b110010 @
b110010 l
b110010 u
b1111011 N
b1111011 C
b1111011 Q
b1111011 *"
b10 5
b10 h
b10 q
12
b0 6
b0 g
b0 '"
b0 7
b0 f
b0 !"
1J
b110010 K
b110010 p
b110010 v
b110010 %"
b100101 ;
b100101 V
0[
1X
b10010100110010 =
b10010100110010 m
b1001 :
b1001 n
b1001 r
b1001 |
b0 !
b0 9
b0 t
b0 z
b0 #"
b0 )"
b0 /"
03"
b1000 3
b1000 W
b1000 2"
16"
1%
#18
0%
#19
b1100100 1
b1100100 -"
b1100100 ."
b1100100 0"
0L
0S
0E
b1100100 A
b1100100 M
b1100100 w
b1100100 +"
b1100100 U
b10 6
b10 g
b10 '"
b10 7
b10 f
b10 !"
b0 5
b0 h
b0 q
02
1J
0X
bx >
bx j
bx ~
bx &"
bx ,"
b1111011 @
b1111011 l
b1111011 u
b10011100 P
b0 D
b0 R
b0 $"
b1100100 N
b1100100 C
b1100100 Q
b1100100 *"
b1100100 K
b1100100 p
b1100100 v
b1100100 %"
b10 ;
b10 V
b0 3
b0 W
b0 2"
06"
b11111111 !
b11111111 9
b11111111 t
b11111111 z
b11111111 #"
b11111111 )"
b11111111 /"
b1001100100 =
b1001100100 m
b1010 :
b1010 n
b1010 r
b1010 |
1%
#20
0%
#21
b110010 1
b110010 -"
b110010 ."
b110010 0"
b11001110 P
1I
b10 6
b10 g
b10 '"
b10 7
b10 f
b10 !"
0J
0E
b110010 A
b110010 M
b110010 w
b110010 +"
b110010 U
b110010 K
b110010 p
b110010 v
b110010 %"
b11 ;
b11 V
b110010 N
b110010 C
b110010 Q
b110010 *"
b1100110010 =
b1100110010 m
b1011 :
b1011 n
b1011 r
b1011 |
b1100100 !
b1100100 9
b1100100 t
b1100100 z
b1100100 #"
b1100100 )"
b1100100 /"
1%
#22
0%
#23
1G
1F
1T
b10010110 1
b10010110 -"
b10010110 ."
b10010110 0"
b1100100 D
b1100100 R
b1100100 $"
b100110010 P
0E
b10010110 A
b10010110 M
b10010110 w
b10010110 +"
b10010110 U
b10 5
b10 h
b10 q
1<
b0 6
b0 g
b0 '"
b0 7
b0 f
b0 !"
0I
bx >
bx j
bx ~
bx &"
bx ,"
b1111000 @
b1111000 l
b1111000 u
b110010 ?
b110010 k
b110010 {
b10010110 N
b110010 C
b110010 Q
b110010 *"
b1111000 K
b1111000 p
b1111000 v
b1111000 %"
b101000 ;
b101000 V
b110010 "
b110010 8
b110010 s
b110010 y
b110010 ""
b110010 ("
b110010 1"
b10100001111000 =
b10100001111000 m
b1100 :
b1100 n
b1100 r
b1100 |
1%
#24
0%
#25
1F
1T
0E
b10010110 A
b10010110 M
b10010110 w
b10010110 +"
b10010110 U
b11 6
b11 g
b11 '"
1J
b10 5
b10 h
b10 q
0<
b101100 ;
b101100 V
b100110010 P
b1100100 D
b1100100 R
b1100100 $"
b10010110 N
b110010 C
b110010 Q
b110010 *"
1Y
1Z
b10110001111000 =
b10110001111000 m
b1101 :
b1101 n
b1101 r
b1101 |
b110010 >
b110010 j
b110010 ~
b110010 &"
b110010 ,"
15"
b101 3
b101 W
b101 2"
14"
1%
#26
0%
#27
0G
b11001 1
b11001 -"
b11001 ."
b11001 0"
0F
0T
0E
b11001 A
b11001 M
b11001 w
b11001 +"
b11001 U
b10 7
b10 f
b10 !"
b0 5
b0 h
b0 q
b10 6
b10 g
b10 '"
1J
b11111111 >
b11111111 j
b11111111 ~
b11111111 &"
b11111111 ,"
b110010 @
b110010 l
b110010 u
b11100111 P
b0 D
b0 R
b0 $"
b11001 N
b11001 C
b11001 Q
b11001 *"
b11001 K
b11001 p
b11001 v
b11001 %"
b10 ;
b10 V
b10010110 !
b10010110 9
b10010110 t
b10010110 z
b10010110 #"
b10010110 )"
b10010110 /"
b1000011001 =
b1000011001 m
b1110 :
b1110 n
b1110 r
b1110 |
1%
#28
0%
#29
0E
b11001 A
b11001 M
b11001 w
b11001 +"
b11001 U
1I
b10 6
b10 g
b10 '"
b10 7
b10 f
b10 !"
0J
b11 ;
b11 V
b11001 N
b11001 C
b11001 Q
b11001 *"
0Y
0Z
b1100011001 =
b1100011001 m
b1111 :
b1111 n
b1111 r
b1111 |
b11001 !
b11001 9
b11001 t
b11001 z
b11001 #"
b11001 )"
b11001 /"
05"
b0 3
b0 W
b0 2"
04"
1%
#30
0%
1/
#31
0G
b0 1
b0 -"
b0 ."
b0 0"
b11001 D
b11001 R
b11001 $"
b100000000 P
0L
0S
1E
b0 A
b0 M
b0 w
b0 +"
b0 U
b1 B
b1 O
b1 e
b0 6
b0 g
b0 '"
b0 7
b0 f
b0 !"
0I
bx >
bx j
bx ~
bx &"
bx ,"
b11001 @
b11001 l
b11001 u
b11001 ?
b11001 k
b11001 {
b110010 N
b11001 C
b11001 Q
b11001 *"
b0 K
b0 p
b0 v
b0 %"
b1001101 ;
b1001101 V
b11001 "
b11001 8
b11001 s
b11001 y
b11001 ""
b11001 ("
b11001 1"
b100110100000000 =
b100110100000000 m
b10000 :
b10000 n
b10000 r
b10000 |
1%
#32
0%
#33
b110010 1
b110010 -"
b110010 ."
b110010 0"
0E
b110010 A
b110010 M
b110010 w
b110010 +"
b110010 U
b110010 N
b11001 C
b11001 Q
b11001 *"
1H
b0 B
b0 O
b0 e
b10100 K
b10100 p
b10100 v
b10100 %"
b1010100 ;
b1010100 V
1X
b101010000010100 =
b101010000010100 m
b10001 :
b10001 n
b10001 r
b10001 |
b1000 3
b1000 W
b1000 2"
16"
1%
#34
0%
#35
b10 1
b10 -"
b10 ."
b10 0"
0E
b10 A
b10 M
b10 w
b10 +"
b10 U
b11111110 P
b0 D
b0 R
b0 $"
b10 N
b10 C
b10 Q
b10 *"
b10 6
b10 g
b10 '"
b10 7
b10 f
b10 !"
1I
0H
0X
b10 K
b10 p
b10 v
b10 %"
b11 ;
b11 V
b0 3
b0 W
b0 2"
06"
b1100000010 =
b1100000010 m
b10010 :
b10010 n
b10010 r
b10010 |
1%
#36
0%
1$
#37
xF
xT
xG
bx 1
bx -"
bx ."
bx 0"
b11001 D
b11001 R
b11001 $"
bx P
xL
xS
b1 B
b1 O
b1 e
b10 5
b10 h
b10 q
b11 6
b11 g
b11 '"
b0 7
b0 f
b0 !"
0I
xE
bx A
bx M
bx w
bx +"
bx U
b10101 K
b10101 p
b10101 v
b10101 %"
b1010000 ;
b1010000 V
bx >
bx j
bx ~
bx &"
bx ,"
b10101 @
b10101 l
b10101 u
b10 ?
b10 k
b10 {
bx N
bx C
bx Q
bx *"
b101000000010101 =
b101000000010101 m
b10011 :
b10011 n
b10011 r
b10011 |
b10 "
b10 8
b10 s
b10 y
b10 ""
b10 ("
b10 1"
1%
#38
0%
#39
0G
b1 1
b1 -"
b1 ."
b1 0"
b11111111 P
b0 D
b0 R
b0 $"
0F
0T
0L
0S
0E
b1 A
b1 M
b1 w
b1 +"
b1 U
b0 >
b0 j
b0 ~
b0 &"
b0 ,"
b10 @
b10 l
b10 u
b1 N
b1 C
b1 Q
b1 *"
b10 7
b10 f
b10 !"
1I
b0 B
b0 O
b0 e
b0 5
b0 h
b0 q
b10 6
b10 g
b10 '"
x[
xY
xZ
xX
b1 K
b1 p
b1 v
b1 %"
b11 ;
b11 V
x3"
x5"
x4"
bx 3
bx W
bx 2"
x6"
b1100000001 =
b1100000001 m
b10100 :
b10100 n
b10100 r
b10100 |
1%
#40
0%
#41
b11010 1
b11010 -"
b11010 ."
b11010 0"
b100011000 P
b11001 D
b11001 R
b11001 $"
bx >
bx j
bx ~
bx &"
bx ,"
0E
b11010 A
b11010 M
b11010 w
b11010 +"
b11010 U
b10 5
b10 h
b10 q
1<
b0 6
b0 g
b0 '"
b0 7
b0 f
b0 !"
0I
b1100100 K
b1100100 p
b1100100 v
b1100100 %"
b101000 ;
b101000 V
b1100100 @
b1100100 l
b1100100 u
b1 ?
b1 k
b1 {
b11010 N
b1 C
b1 Q
b1 *"
0[
0Y
0Z
0X
b10100001100100 =
b10100001100100 m
b10101 :
b10101 n
b10101 r
b10101 |
b1 "
b1 8
b1 s
b1 y
b1 ""
b1 ("
b1 1"
03"
05"
04"
b0 3
b0 W
b0 2"
06"
1%
#42
0%
#43
1G
b11000011 1
b11000011 -"
b11000011 ."
b11000011 0"
0E
b11000011 A
b11000011 M
b11000011 w
b11000011 +"
b11000011 U
b1 @
b1 l
b1 u
b10 6
b10 g
b10 '"
b10 7
b10 f
b10 !"
1I
b0 5
b0 h
b0 q
0<
b111101 P
b0 D
b0 R
b0 $"
b11000011 N
b11000011 C
b11000011 Q
b11000011 *"
b11000011 K
b11000011 p
b11000011 v
b11000011 %"
b11 ;
b11 V
b0 >
b0 j
b0 ~
b0 &"
b0 ,"
b1111000011 =
b1111000011 m
b10110 :
b10110 n
b10110 r
b10110 |
1%
#44
0%
#45
0G
b1010101 1
b1010101 -"
b1010101 ."
b1010101 0"
b10101011 P
0E
b1010101 A
b1010101 M
b1010101 w
b1010101 +"
b1010101 U
1J
b10 6
b10 g
b10 '"
b10 7
b10 f
b10 !"
0I
b1010101 K
b1010101 p
b1010101 v
b1010101 %"
b10 ;
b10 V
bx >
bx j
bx ~
bx &"
bx ,"
b11000011 @
b11000011 l
b11000011 u
b11000011 ?
b11000011 k
b11000011 {
b1010101 N
b1010101 C
b1010101 Q
b1010101 *"
1Z
b1001010101 =
b1001010101 m
b10111 :
b10111 n
b10111 r
b10111 |
b11000011 "
b11000011 8
b11000011 s
b11000011 y
b11000011 ""
b11000011 ("
b11000011 1"
b100 3
b100 W
b100 2"
14"
1%
#46
0%
#47
1L
1S
b11000 1
b11000 -"
b11000 ."
b11000 0"
b1010101 ?
b1010101 k
b1010101 {
b10000 @
b10000 l
b10000 u
b1010101 D
b1010101 R
b1010101 $"
b10010010 P
0E
b11000 A
b11000 M
b11000 w
b11000 +"
b11000 U
b1 4
b1 i
b1 x
b10 5
b10 h
b10 q
1<
b0 6
b0 g
b0 '"
b0 7
b0 f
b0 !"
0J
0Z
b100011000 N
b11000011 C
b11000011 Q
b11000011 *"
b10000 K
b10000 p
b10000 v
b10000 %"
b100111 ;
b100111 V
b0 3
b0 W
b0 2"
04"
b1010101 !
b1010101 9
b1010101 t
b1010101 z
b1010101 #"
b1010101 )"
b1010101 /"
b10011100010000 =
b10011100010000 m
b11000 :
b11000 n
b11000 r
b11000 |
1%
#48
0%
#49
1G
b11010111 1
b11010111 -"
b11010111 ."
b11010111 0"
b11000011 ?
b11000011 k
b11000011 {
0L
0S
0E
b11010111 A
b11010111 M
b11010111 w
b11010111 +"
b11010111 U
b11 B
b11 O
b11 e
b11 6
b11 g
b11 '"
b1 7
b1 f
b1 !"
1I
b0 4
b0 i
b0 x
b10 5
b10 h
b10 q
0<
b111001 ;
b111001 V
b101101110 P
b11000011 D
b11000011 R
b11000011 $"
b100011000 N
b1010101 C
b1010101 Q
b1010101 *"
1[
b11100100010000 =
b11100100010000 m
b11001 :
b11001 n
b11001 r
b11001 |
b1010101 >
b1010101 j
b1010101 ~
b1010101 &"
b1010101 ,"
b10 3
b10 W
b10 2"
13"
1%
#50
0%
#51
1G
b10100101 1
b10100101 -"
b10100101 ."
b10100101 0"
0L
0S
0E
b10100101 A
b10100101 M
b10100101 w
b10100101 +"
b10100101 U
1J
b0 B
b0 O
b0 e
b0 5
b0 h
b0 q
b10 6
b10 g
b10 '"
b10 7
b10 f
b10 !"
0I
0[
1Z
bx >
bx j
bx ~
bx &"
bx ,"
b11010111 @
b11010111 l
b11010111 u
b11010111 ?
b11010111 k
b11010111 {
b1011011 P
b0 D
b0 R
b0 $"
b10100101 N
b10100101 C
b10100101 Q
b10100101 *"
b10100101 K
b10100101 p
b10100101 v
b10100101 %"
b10 ;
b10 V
03"
b100 3
b100 W
b100 2"
14"
b11010111 "
b11010111 8
b11010111 s
b11010111 y
b11010111 ""
b11010111 ("
b11010111 1"
b1010100101 =
b1010100101 m
b11010 :
b11010 n
b11010 r
b11010 |
1%
#52
0%
#53
b11010010 1
b11010010 -"
b11010010 ."
b11010010 0"
b101110 P
1I
b10 6
b10 g
b10 '"
b10 7
b10 f
b10 !"
0J
0E
b11010010 A
b11010010 M
b11010010 w
b11010010 +"
b11010010 U
b11010010 K
b11010010 p
b11010010 v
b11010010 %"
b11 ;
b11 V
b11010010 N
b11010010 C
b11010010 Q
b11010010 *"
b1111010010 =
b1111010010 m
b11011 :
b11011 n
b11011 r
b11011 |
b10100101 !
b10100101 9
b10100101 t
b10100101 z
b10100101 #"
b10100101 )"
b10100101 /"
1%
#54
0%
#55
0G
b1011010 1
b1011010 -"
b1011010 ."
b1011010 0"
b10100101 D
b10100101 R
b10100101 $"
b11010011 P
0E
b1011010 A
b1011010 M
b1011010 w
b1011010 +"
b1011010 U
b101 B
b101 O
b101 e
1<
b0 6
b0 g
b0 '"
b0 7
b0 f
b0 !"
0I
b11010010 @
b11010010 l
b11010010 u
b11010010 ?
b11010010 k
b11010010 {
b101110111 N
b11010010 C
b11010010 Q
b11010010 *"
b0 K
b0 p
b0 v
b0 %"
b111110 ;
b111110 V
b11010010 "
b11010010 8
b11010010 s
b11010010 y
b11010010 ""
b11010010 ("
b11010010 1"
b11111000000000 =
b11111000000000 m
b11100 :
b11100 n
b11100 r
b11100 |
1%
#56
0%
#57
1G
b11001010 1
b11001010 -"
b11001010 ."
b11001010 0"
0F
0T
0L
0S
0E
b11001010 A
b11001010 M
b11001010 w
b11001010 +"
b11001010 U
b10 6
b10 g
b10 '"
b10 7
b10 f
b10 !"
1J
b0 B
b0 O
b0 e
0<
b11001010 K
b11001010 p
b11001010 v
b11001010 %"
b10 ;
b10 V
b110110 P
b0 D
b0 R
b0 $"
b11001010 N
b11001010 C
b11001010 Q
b11001010 *"
0Z
b1011001010 =
b1011001010 m
b11101 :
b11101 n
b11101 r
b11101 |
b11010010 >
b11010010 j
b11010010 ~
b11010010 &"
b11010010 ,"
b0 3
b0 W
b0 2"
04"
1%
#58
0%
1*
#59
b10101100 1
b10101100 -"
b10101100 ."
b10101100 0"
b1010100 P
0E
b10101100 A
b10101100 M
b10101100 w
b10101100 +"
b10101100 U
1I
b10 6
b10 g
b10 '"
b10 7
b10 f
b10 !"
0J
1Z
b10101100 N
b10101100 C
b10101100 Q
b10101100 *"
b10101100 K
b10101100 p
b10101100 v
b10101100 %"
b11 ;
b11 V
b100 3
b100 W
b100 2"
14"
b11001010 !
b11001010 9
b11001010 t
b11001010 z
b11001010 #"
b11001010 )"
b11001010 /"
b1110101100 =
b1110101100 m
b11110 :
b11110 n
b11110 r
b11110 |
1%
#60
0%
#61
0G
1F
1T
1L
1S
b1110110 1
b1110110 -"
b1110110 ."
b1110110 0"
b11001010 D
b11001010 R
b11001010 $"
b100011110 P
b10 5
b10 h
b10 q
1<
b0 6
b0 g
b0 '"
b0 7
b0 f
b0 !"
0I
0E
b1110110 A
b1110110 M
b1110110 w
b1110110 +"
b1110110 U
b11011100 K
b11011100 p
b11011100 v
b11011100 %"
b101000 ;
b101000 V
bx >
bx j
bx ~
bx &"
bx ,"
b11011100 @
b11011100 l
b11011100 u
b10101100 ?
b10101100 k
b10101100 {
b101110110 N
b10101100 C
b10101100 Q
b10101100 *"
b10100011011100 =
b10100011011100 m
b11111 :
b11111 n
b11111 r
b11111 |
b10101100 "
b10101100 8
b10101100 s
b10101100 y
b10101100 ""
b10101100 ("
b10101100 1"
1%
#62
0%
#63
b1100110 1
b1100110 -"
b1100110 ."
b1100110 0"
0F
0T
0L
0S
0E
b1100110 A
b1100110 M
b1100110 w
b1100110 +"
b1100110 U
b100 B
b100 O
b100 e
b11 6
b11 g
b11 '"
1J
b10 5
b10 h
b10 q
0<
1[
1Y
0Z
b100011110 P
b11001010 D
b11001010 R
b11001010 $"
b101110110 N
b10101100 C
b10101100 Q
b10101100 *"
b111111 ;
b111111 V
13"
15"
b11 3
b11 W
b11 2"
04"
b10101100 >
b10101100 j
b10101100 ~
b10101100 &"
b10101100 ,"
b11111111011100 =
b11111111011100 m
b100000 :
b100000 n
b100000 r
b100000 |
1%
#64
0%
#65
b1010101 1
b1010101 -"
b1010101 ."
b1010101 0"
bx >
bx j
bx ~
bx &"
bx ,"
b10101100 @
b10101100 l
b10101100 u
0L
0S
0E
b1010101 A
b1010101 M
b1010101 w
b1010101 +"
b1010101 U
b10 7
b10 f
b10 !"
1I
b0 B
b0 O
b0 e
b0 5
b0 h
b0 q
b10 6
b10 g
b10 '"
0J
b1010101 K
b1010101 p
b1010101 v
b1010101 %"
b11 ;
b11 V
b10101011 P
b0 D
b0 R
b0 $"
b1010101 N
b1010101 C
b1010101 Q
b1010101 *"
0[
0Y
b1101010101 =
b1101010101 m
b100001 :
b100001 n
b100001 r
b100001 |
b1100110 !
b1100110 9
b1100110 t
b1100110 z
b1100110 #"
b1100110 )"
b1100110 /"
03"
b0 3
b0 W
b0 2"
05"
1%
#66
0%
